<?xml version="1.0" encoding="UTF-8"?>
<!DOCTYPE svg PUBLIC "-//W3C//DTD SVG 1.1//EN" "http://www.w3.org/Graphics/SVG/1.1/DTD/svg11.dtd">
<!-- Creator: CorelDRAW X7 -->
<svg xmlns="http://www.w3.org/2000/svg" xml:space="preserve" width="117px" height="117px" version="1.1" style="shape-rendering:geometricPrecision; text-rendering:geometricPrecision; image-rendering:optimizeQuality; fill-rule:evenodd; clip-rule:evenodd"
viewBox="0 0 117 117"
 xmlns:xlink="http://www.w3.org/1999/xlink">
 <defs>
  <style type="text/css">
   <![CDATA[
    .fil0 {fill: aqua}
   ]]>
  </style>
 </defs>
 <g id="Слой_x0020_1">
  <metadata id="CorelCorpID_0Corel-Layer"/>
  <path class="fil0" d="M34 32l32 0c1,0 1,1 1,2l0 26 -2 -3 0 -22 -30 0 0 27 25 0 3 3 -29 0c-1,0 -2,-1 -2,-2l0 -29c0,-1 1,-2 2,-2zm19 21l15 15 -5 4 12 0 0 -12 -4 5 -16 -15 -2 3zm18 -4l13 0c1,0 2,1 2,2l0 29c0,1 -1,2 -2,2l-32 0c-1,0 -2,-1 -2,-2l0 -12 3 0 0 12 30 0 0 -28 -12 0 0 -3z"/>
  <path class="fil0" d="M59 0c-33,0 -59,26 -59,59 0,32 26,58 59,58 32,0 58,-26 58,-58 0,-33 -26,-59 -58,-59zm0 113c-30,0 -55,-24 -55,-54 0,-30 25,-55 55,-55 30,0 54,25 54,55 0,30 -24,54 -54,54z"/>
 </g>
</svg>
