<?xml version="1.0" encoding="UTF-8"?>
<!DOCTYPE svg PUBLIC "-//W3C//DTD SVG 1.1//EN" "http://www.w3.org/Graphics/SVG/1.1/DTD/svg11.dtd">
<!-- Creator: CorelDRAW X7 -->
<svg xmlns="http://www.w3.org/2000/svg" xml:space="preserve" width="116px" height="116px" version="1.1" style="shape-rendering:geometricPrecision; text-rendering:geometricPrecision; image-rendering:optimizeQuality; fill-rule:evenodd; clip-rule:evenodd"
viewBox="0 0 116 116"
 xmlns:xlink="http://www.w3.org/1999/xlink">
 <defs>
  <style type="text/css">
   <![CDATA[
    .fil0 {fill:aqua}
   ]]>
  </style>
 </defs>
 <g id="Слой_x0020_1">
  <metadata id="CorelCorpID_0Corel-Layer"/>
  <path class="fil0" d="M33 31l32 0c1,0 2,1 2,2l0 26 -3 -2 0 -23 -30 0 0 28 26 0 3 2 -30 0c0,0 -1,-1 -1,-2l0 -29c0,-1 1,-2 1,-2zm40 36l-15 -15 4 -4 -12 0 0 11 5 -4 15 15 3 -3zm-3 -18l13 0c1,0 2,0 2,1l0 30c0,1 -1,1 -2,1l-31 0c-1,0 -2,0 -2,-1l0 -13 3 0 0 12 30 0 0 -28 -13 0 0 -2z"/>
  <path class="fil0" d="M58 0c-32,0 -58,26 -58,58 0,32 26,58 58,58 32,0 58,-26 58,-58 0,-32 -26,-58 -58,-58zm0 112c-30,0 -54,-24 -54,-54 0,-30 24,-54 54,-54 30,0 54,24 54,54 0,30 -24,54 -54,54z"/>
 </g>
</svg>
