<?xml version="1.0" encoding="UTF-8"?>
<!DOCTYPE svg PUBLIC "-//W3C//DTD SVG 1.1//EN" "http://www.w3.org/Graphics/SVG/1.1/DTD/svg11.dtd">
<!-- Creator: CorelDRAW X6 -->
<svg xmlns="http://www.w3.org/2000/svg" xml:space="preserve" width="64.8397mm" height="64.5739mm" version="1.1" style="shape-rendering:geometricPrecision; text-rendering:geometricPrecision; image-rendering:optimizeQuality; fill-rule:evenodd; clip-rule:evenodd"
viewBox="0 0 6484 6457"
 xmlns:xlink="http://www.w3.org/1999/xlink">
 <defs>
  <style type="text/css">
   <![CDATA[
    .fil0 {fill:#F4B213}
    .fil1 {fill:#325862;fill-rule:nonzero}
   ]]>
  </style>
 </defs>
 <g id="Слой_x0020_1">
  <metadata id="CorelCorpID_0Corel-Layer"/>
  <g id="_627840000">
   <path class="fil0" d="M279 6313c-6,-29 -166,-263 -166,-263l206 -1139 372 -332 1385 -412 -406 721 401 23 -120 303 1208 1036 258 -106 1062 -936 -103 -320 372 -23 -223 -693 1368 521 332 298 172 1065 -155 280c0,0 -5838,92 -5872,57 -34,-34 -89,-80 -89,-80z"/>
   <path class="fil1" d="M3242 4398l-100 -67 -572 -382 0 -100 2 2 5 4 4 3 4 3 5 4 3 2 7 5 1 1 8 6 0 0 8 6 2 1 7 5 3 2 5 4 5 3 4 3 6 4 2 2 8 5 1 1 9 6 1 1 8 5 2 2 7 4 4 3 5 3 6 4 3 2 7 5 11 7 0 0 9 6 2 1 8 5 3 2 6 4 5 3 4 3 7 4 3 2 8 5 1 1 10 5 1 0 9 5 2 1 7 4 4 2 6 3 6 3 4 2 8 4 2 1 9 5 0 0 10 5 1 1 8 4 3 2 7 3 5 2 5 2 7 3 3 1 9 4 1 1 10 4 0 0 10 4 2 1 8 3 4 2c8,3 16,6 23,9l0 0 2 1 9 3 1 0 10 3 1 0 9 3 3 1 7 2 5 1 5 2 7 2 3 1 8 2 2 0 10 2 0 0 10 2 2 0 8 2 4 1 1 0 10 2 1 0 9 2 2 0 2 0 9 1 1 0 10 1 1 0 9 1 3 0 2 0 9 1 2 0 9 1 2 0 7 0 3 0 2 0 9 0 1 0 0 0 1 0 0 0 1 0 1 0 1 0 1 0 1 0 0 0 1 0 1 0 1 0 1 0 1 0 0 0 0 0 1 0 1 0 1 0 1 0 1 0 0 0 1 0 1 0 1 0 1 0 1 0 0 0 1 0 1 0 1 0 1 0 1 0 0 0 1 0 1 0 1 0 1 0 1 0 0 0 1 0 1 0 1 0 1 0 1 0 1 0 0 0 1 0 1 0 1 0 1 0 1 0 0 0 1 0 1 0 1 0 1 0 1 0 0 0 1 0 1 0 1 0 1 0 1 0 0 0 1 0 1 0 1 0 1 0 1 0 1 0 1 0 1 0 1 0 1 0 1 0 1 0 0 0 1 0 6 0 0 0 6 0 1 0 6 0 3 0 4 0 4 0 3 0 7 0 7 0 0 0 8 0 2 0 6 0 4 0 4 0 5 0 3 0 7 -1 1 0 9 -1 1 0 8 -1 3 0 6 -1 5 -1 4 -1 7 -1 2 0 9 -1 0 0 10 -2 2 0 8 -1 4 -1 6 -1 6 -1 4 -1 8 -2 2 0 10 -2 0 0 10 -2 3 -1 8 -2 5 -1 6 -2 7 -2 4 -1 10 -3 1 0 11 -3 1 0 10 -3c7,-2 15,-5 22,-7l2 -1 10 -4 11 -4 1 0 12 -4 2 -1 10 -4 2 -1c31,-12 63,-27 95,-44l2 -1c12,-6 24,-13 36,-20l0 0 11 -7 2 -1c12,-7 25,-15 38,-23l13 -8c8,-6 17,-11 25,-17l1 -1c8,-6 17,-12 25,-18l13 -10 11 -9 3 -2c8,-7 17,-13 25,-20l2 -1 12 -10 2 -1 10 -9 0 106 -672 449zm-1410 -2561c-24,-55 -37,-115 -37,-177l0 -577c0,-477 388,-864 864,-864l1460 0c60,13 134,39 162,93 34,66 -5,156 -5,157 -14,30 -14,64 0,94 14,30 41,51 73,59 279,67 336,335 343,378l0 778c0,49 -14,97 -40,141l0 -167 0 0 0 -129c0,-4 0,-8 -1,-12 -1,-7 -9,-76 -47,-165l-1 -3 -1 -3 -1 -2 -2 -3 -1 -2 -3 -6 -2 -4 -1 -1 -3 -6 -3 -5 0 0 -3 -6 0 0 -3 -6 0 -1 -3 -5 -1 -1 -3 -5c-3,-6 -6,-12 -10,-17l-2 -3 -2 -3c-64,-107 -174,-224 -360,-292 -1,0 -1,0 -1,-1l-510 -179c-119,-42 -250,-40 -368,5 -146,56 -260,96 -328,118 -31,10 -63,15 -97,15l-485 0c-5,0 -9,0 -14,1 -19,2 -456,65 -566,558 -2,8 -3,16 -3,24l0 226zm2591 -258c8,24 11,43 12,51l0 175 0 723c-60,653 -338,906 -455,985 -4,3 -8,6 -12,9l-6 4 -3 2 -3 2 -3 2 -3 2 -3 2 -3 2 -3 2 -3 2 -3 2 -3 2 -3 2 -3 2 -3 2 -3 2 0 0 -3 2 -3 2 -3 2 -3 2 0 0 -3 2 -3 2 -3 2 -3 2 -3 2 -3 2 -3 2 -3 2 0 0 -3 2 -3 2 -3 2 -3 2 -3 2 0 0 -3 2 -3 2 -3 2 -3 2 -3 2 0 0 -3 2 -3 2 0 0 -3 2 0 0 -3 2 0 0 -3 2 0 0 -3 2 0 0 -3 2 0 0 -3 2 -3 2 0 0 -3 2 0 0 -3 2 0 0 -3 2 -5 5 0 0 -3 2 0 0 -5 5 0 0 -3 2 0 0 -3 2 0 0 -5 5 0 0 -3 2 0 0 -3 2 0 0 -3 2 0 0 -3 2 0 0 -8 7c-23,21 -46,40 -68,57l0 0 -13 10 0 0c-41,30 -80,54 -119,74l-1 0c-42,22 -83,39 -121,52l-1 0 -10 3c-120,38 -211,35 -242,33l0 0 -3 0 0 0 -4 0 0 0 -1 0 0 0 -1 0 -1 0 0 0 0 0 0 0 0 0 0 0 0 0 0 0 0 0 0 0 0 0 0 0 0 0 0 0 0 0 0 0 0 0 0 0 0 0 0 0 0 0 0 0 0 0 0 0 0 0 0 0 0 0 0 0 0 0 0 0 0 0 0 0 0 0 0 0 0 0 0 0 0 0 0 0 0 0 0 0 0 0 0 0 0 0 0 0 0 0 0 0 0 0 0 0 0 0 0 0 0 0 0 0 0 0 0 0 0 0 0 0 0 0 0 0 0 0 0 0 0 0 0 0 0 0 0 0 0 0 -1 0 0 0 -1 0 0 0 0 0 0 0 0 0 0 0 0 0 0 0 0 0 0 0 -1 0 0 0 0 0 0 0 -1 0 0 0 0 0 0 0 0 0 0 0 0 0 0 0 0 0 0 0 0 0 0 0 0 0 0 0 0 0 0 0 0 0 0 0 0 0 0 0 0 0 0 0 0 0 0 0 0 0 0 0 0 0 0 0 0 0 0 0 0 0 0 0 0 0 -6 0 -6 0 -6 0 -6 0 -6 -1 -6 -1 -6 -1 0 0 -6 -1 0 0 -7 -1 0 0 -7 -1 0 0 -7 -1 -14 -3 -7 -2 0 0 -7 -2 0 0 -7 -2 0 0 -7 -2 0 0 -8 -3 0 0 -8 -3 0 0 -8 -3 0 0 -8 -3 0 0 -16 -6 -8 -3 0 0 -8 -3 0 0 -8 -4 0 0 -8 -4 0 0 -9 -4 -9 -4 -9 -4 0 0 -9 -4 0 0 -9 -4 -9 -5 0 0 -9 -5 0 0 -18 -10 -19 -10 0 0 -9 -5 0 0 -9 -5 0 0 -19 -11 0 0 -10 -6 0 0 -10 -6 0 0 -10 -6 0 0 -10 -6 0 0 -10 -6 0 0 -10 -6 -10 -7 0 0 -10 -7 -20 -14 -10 -7 0 0 -10 -7 -10 -7 0 0 -10 -7 -10 -7 -10 -8 0 0 -10 -8 -10 -8 -10 -8 -10 -8 -10 -8 -10 -8 -2 -1 -2 -1 -2 -1 -2 -1 -2 -1 -2 -1 -2 -1 -2 -1 0 0 -2 -1 -2 -1 -2 -1 0 0 -2 -1 -2 -1 0 0 -2 -1 -2 -1 -2 -1 0 0 -2 -1 0 0 -2 -1 -2 -1 -2 -1 -2 -1 -2 -1 -2 -1 -2 -1 -2 -1 0 0 -2 -1 -2 -1 -2 -1 -2 -1 -2 -1 -2 -1 -2 -1 -2 -1 -2 -1 -2 -1 -2 -1 -2 -1 -2 -1 -2 -1 -2 -1 -2 -1 -2 -1 0 0 -2 -1 -2 -1 0 0 -2 -1 -2 -1 -2 -1 0 0 -2 -1 0 0 -2 -1 0 0 -2 -1 0 0 -2 -1 0 0 -2 -1 0 0 -3 -2 0 0 -2 -1 0 0 -2 -1 0 0 -2 -1 0 0 -2 -1 0 0 -10 -7 -1 -1 -2 -1c-3,-2 -5,-4 -8,-6 -431,-285 -459,-953 -460,-981l0 -928c75,-309 330,-368 372,-376l476 0c56,0 111,-9 164,-25 90,-29 234,-82 339,-122 70,-27 147,-28 218,-3l510 179c125,46 200,124 244,195l2 3 1 2 1 2 2 3 0 0 2 3 1 2 1 2 2 3 0 0 2 3 1 2 1 2 2 3 0 0 2 3 1 2 1 1 2 3 0 0 1 3 1 2 1 1 1 3 0 0 1 3 1 2 1 1 1 3 1 3 1 2 0 1 1 3 0 0 1 3 1 2 0 1 1 3 0 1 1 2 1 2 0 1 1 3 0 1 1 2 1 2 0 1 1 3 0 1 1 2 1 2 0 1 1 3 1 3 1 2zm231 968c5,-29 51,-294 185,-509 49,-79 75,-169 75,-260l0 -786c0,-5 0,-9 -1,-14 -2,-17 -54,-388 -402,-534 10,-65 9,-149 -32,-230 -56,-109 -165,-181 -326,-212 -5,-1 -9,-1 -14,-2l-1497 0c-589,10 -1066,492 -1066,1083l0 577c0,150 51,297 144,413 46,57 102,157 111,307l0 174c0,1 0,2 0,2 1,32 23,768 519,1132l0 242 -346 124 -2 1 0 0 -1 0 -1 1 -1366 494c-256,93 -444,318 -488,587l-141 854c-4,22 -5,44 -5,65 0,94 33,186 95,259 76,90 188,141 306,141l2840 0 1 0 0 0 1 0 1 0 1 0 2839 0c118,0 229,-52 306,-141 76,-90 109,-208 90,-325l-141 -854c-45,-269 -232,-494 -488,-587l-1364 -493 -1 -1 -1 -1 -1 -1 -348 -125 0 -258c181,-133 458,-446 520,-1126zm-997 3272l252 -459 1 -2 1 -2 529 -961 192 386 -280 4c-38,1 -73,21 -92,54 -19,33 -21,73 -3,107l115 220 -715 654zm-134 420l1059 -969c37,-34 46,-88 23,-132l-72 -137 276 -4c38,-1 72,-20 92,-53 20,-32 21,-72 4,-106l-241 -483 1111 402c182,66 315,225 346,416l141 854c0,0 0,0 0,0 9,53 -6,106 -41,147 -35,41 -85,64 -138,64l-2562 0zm-1477 -1843l531 965 252 459 -715 -654 115 -220c18,-34 17,-74 -3,-107 -20,-33 -55,-53 -93,-54l-280 -4 192 -386zm-225 -40l-241 483c-17,34 -15,74 4,106 20,32 54,52 92,53l276 4 -72 137c-23,44 -14,98 23,132l1059 969 -2561 0c-53,0 -104,-23 -138,-64 -35,-41 -49,-94 -41,-147l141 -854c32,-191 164,-351 346,-416l1110 -402zm1691 727l171 233 -126 229 -68 -429 23 -33zm-113 -524l640 -428 247 89 -487 885 -199 -271 -1 -1 -2 -2 -199 -271zm-469 990l-128 -232 172 -235 24 34 -69 433zm172 313l120 -755c4,-28 -2,-56 -18,-80l-92 -132 131 -178 132 179 -91 130c-16,23 -23,52 -18,80l119 752 -142 259 -140 -255zm-213 -1034l0 0 0 0 0 0 0 0 0 0 0 0 0 0 -202 274 -487 -885 247 -89 640 428 -184 251 -11 15 -2 2 -1 1 0 0z"/>
  </g>
 </g>
</svg>
