<?xml version="1.0" encoding="UTF-8"?>
<!DOCTYPE svg PUBLIC "-//W3C//DTD SVG 1.1//EN" "http://www.w3.org/Graphics/SVG/1.1/DTD/svg11.dtd">
<!-- Creator: CorelDRAW X6 -->
<svg xmlns="http://www.w3.org/2000/svg" xml:space="preserve" width="61.0654mm" height="64.3531mm" version="1.1" style="shape-rendering:geometricPrecision; text-rendering:geometricPrecision; image-rendering:optimizeQuality; fill-rule:evenodd; clip-rule:evenodd"
viewBox="0 0 6107 6435"
 xmlns:xlink="http://www.w3.org/1999/xlink">
 <defs>
  <style type="text/css">
   <![CDATA[
    .fil0 {fill:#F4B213}
    .fil1 {fill:#325862;fill-rule:nonzero}
   ]]>
  </style>
 </defs>
 <g id="Слой_x0020_1">
  <metadata id="CorelCorpID_0Corel-Layer"/>
  <g id="_627830240">
   <path class="fil0" d="M915 6292c-55,-928 209,-1592 1204,-1653l348 -14 -82 499 183 101 174 179 243 -128 179 -5 211 105 321 -252 -30 -468c169,-3 337,-5 506,-8 864,105 1027,827 1058,1667l-1900 5 -217 -806 -114 -5 -215 813c-622,-10 -1244,-20 -1866,-30z"/>
   <path class="fil1" d="M6002 6225l-713 0 0 -215c0,-492 -131,-872 -390,-1129 -330,-328 -745,-328 -761,-328l-526 0 0 -318c0,-6 -1,-11 -1,-16 337,-139 549,-371 679,-572 22,-34 42,-69 61,-103 337,-18 606,-298 606,-639 0,-123 -35,-242 -101,-345 11,-90 7,-171 2,-219 -8,-79 -44,-146 -104,-192 -43,-33 -92,-52 -141,-63l0 -1037c0,-345 -143,-576 -436,-705 -119,-52 -88,-167 -76,-200 18,-46 1,-99 -41,-126 -42,-27 -97,-21 -132,14 -166,169 -342,164 -661,156 -222,-6 -499,-13 -864,39 -501,72 -723,381 -821,628 -98,247 -92,478 -91,510l0 687c0,11 2,22 5,32 -50,10 -102,30 -146,64 -60,46 -95,113 -104,192 -11,104 -19,363 129,528 51,57 117,95 191,113l0 22c0,5 0,10 1,15 2,13 47,314 249,628 130,201 342,433 679,572 -1,5 -1,11 -1,16l0 318 -525 0c-17,0 -432,1 -762,328 -259,257 -390,637 -390,1129l0 215 -713 0c-58,0 -105,47 -105,105 0,58 47,105 105,105l5897 0c58,0 105,-47 105,-105 0,-58 -47,-105 -105,-105zm-3257 -2842c-124,-42 -187,-97 -190,-99 -43,-38 -109,-35 -148,8 -39,43 -36,109 7,148 9,9 95,84 262,142 11,4 23,6 34,6 44,0 84,-27 99,-71 19,-55 -10,-115 -65,-133zm1179 -1252c0,69 -56,125 -125,125 -69,0 -125,-56 -125,-125 0,-69 56,-125 125,-125 69,0 125,56 125,125zm-1490 0c0,69 -56,125 -125,125 -69,0 -125,-56 -125,-125 0,-69 56,-125 125,-125 69,0 125,56 125,125zm1704 2631l0 0c8,0 346,3 612,267 218,216 328,546 328,981l0 215 -1663 0c0,-8 -1,-15 -3,-23l-201 -764 144 47c11,3 22,5 33,5 30,0 59,-13 79,-36l109 -126 190 -116c37,-22 56,-65 49,-108l-60 -342 383 0zm-1588 154c69,147 200,258 359,301l-144 47 -74 -86c-7,-8 -15,-15 -25,-21l-143 -87 27 -154zm1016 -20l30 174 -143 88c-9,6 -18,13 -25,21l-74 86 -150 -49c163,-46 296,-165 361,-319zm-365 1329l-282 0 141 -535 141 535zm139 -4465c-33,10 -59,35 -70,68 -2,7 -28,88 -36,196 -147,-33 -275,-22 -367,-2 -8,-107 -34,-188 -36,-194 -11,-33 -37,-58 -70,-68 -176,-52 -357,-78 -538,-78 -78,0 -150,5 -214,12 16,-19 24,-42 24,-67l0 -229c97,-47 384,-151 1022,-151 638,0 925,104 1021,151l0 229c0,25 9,49 25,68 -67,-8 -142,-14 -224,-14 -181,0 -362,26 -538,78zm-1117 132c142,0 283,18 422,54 18,88 31,233 -32,323 -42,61 -116,94 -226,100 -83,4 -143,6 -194,6 -269,0 -365,-20 -389,-427 81,-23 228,-55 419,-55zm1233 54c139,-36 280,-54 422,-54 189,0 338,33 419,56 -25,407 -121,427 -389,427 -51,0 -111,-2 -194,-6 -110,-6 -183,-38 -226,-100 -62,-91 -50,-235 -32,-323zm1290 958c0,188 -121,348 -289,406 62,-165 80,-285 81,-293 1,-5 1,-10 1,-15l0 -22c74,-18 138,-56 189,-113 5,-6 10,-11 15,-17 2,18 3,36 3,53zm-98 -543c12,122 -1,283 -76,366 -10,11 -21,20 -33,28l0 -470c33,4 65,12 86,28 10,8 21,20 24,47zm-2215 -1927c347,-50 614,-43 829,-37 252,6 452,11 632,-81 25,86 84,168 198,218 218,96 311,250 311,513l0 645 -117 -110 0 -244c0,-31 -14,-61 -38,-81 -27,-22 -294,-219 -1193,-219 -899,0 -1166,197 -1193,219 -24,20 -38,50 -38,81l0 244 -122 115 0 -335c0,-2 0,-4 0,-6 -2,-33 -33,-813 732,-922zm-901 2293c-75,-83 -89,-244 -76,-366 3,-28 14,-40 24,-48 21,-17 55,-25 88,-29l0 472c-13,-8 -25,-18 -36,-30zm466 811c-164,-252 -214,-501 -221,-544l0 -517c93,78 227,108 417,108 55,0 118,-2 205,-7 177,-9 308,-74 388,-191 31,-45 51,-93 64,-143 51,-17 148,-42 272,-27l0 399c0,23 -19,42 -42,42l-54 0c-23,0 -42,-19 -42,-42 0,-58 -47,-105 -105,-105 -58,0 -105,47 -105,105 0,139 113,252 252,252l54 0c135,0 246,-107 251,-241 0,-4 1,-7 1,-11l0 -205c81,102 206,158 370,167 87,5 149,6 205,7 193,0 329,-32 422,-113l0 522c-6,31 -33,170 -110,340l-713 0c-13,0 -26,3 -38,7 -28,-31 -68,-50 -113,-50l-116 0c-85,0 -154,69 -154,154 0,85 69,154 154,154l116 0c50,0 94,-24 122,-60 9,3 19,4 29,4l598 0c-235,357 -586,554 -1042,585l-20 0c-458,-31 -810,-229 -1045,-590zm1035 800c2,0 5,0 7,0l26 0c2,0 5,0 7,0 119,-8 228,-26 328,-51l0 370c0,1 0,1 0,2 -1,7 -2,14 -2,21 0,191 -155,346 -346,346 -191,0 -346,-155 -346,-346 0,-7 -1,-14 -2,-21 0,-1 0,-1 0,-2l0 -370c100,26 209,44 328,51zm-2005 1672c0,-1234 903,-1248 942,-1248l394 0 -60 342c-8,42 12,85 49,108l190 116 109 126c20,23 49,36 79,36 11,0 22,-2 33,-5l145 -47 -202 764c-2,8 -3,15 -3,23l-1677 0 0 -215z"/>
  </g>
 </g>
</svg>
