<svg xmlns="http://www.w3.org/2000/svg" width="43" height="42" viewBox="0 0 43 42">
  <defs>
    <style>
      .cls-1 {
        fill: #488dc6;
        fill-rule: evenodd;
      }
    </style>
  </defs>
  <path id="icon_2.svg" class="cls-1" d="M1085.44,293.641l7.56-4.348L1071.5,277l-21.5,12.3,7.56,4.348-7.56,4.321,7.56,4.348-7.56,4.322L1071.5,319l21.5-12.372-7.56-4.322,7.56-4.348Zm-13.94-14.833,18.34,10.489L1071.5,299.85,1053.16,289.3Zm-12.36,15.742,12.36,7.115,12.36-7.115,5.98,3.416-18.34,10.553-18.34-10.553Zm30.7,12.086-18.34,10.553-18.34-10.553,5.98-3.417,12.36,7.115,12.36-7.115Z" transform="translate(-1050 -277)"/>
</svg>
