<svg width="500" height="418" viewBox="0 0 500 418" fill="none" xmlns="http://www.w3.org/2000/svg">
<path d="M199.199 272.577C197.27 274.309 196.089 276.723 195.906 279.309L188.302 386.259C188.096 389.153 190.407 391.673 193.272 391.215C201.476 389.906 205.895 385.521 211.026 380.426L266.506 327.403L381.467 411.593C402.551 423.343 417.406 417.156 423.093 392.197L498.554 38.6049L498.574 38.584C505.262 7.41661 487.303 -4.77118 466.761 2.87484L23.2088 172.691C-7.06278 184.442 -6.60443 201.317 18.0628 208.963L127.078 242.871C129.861 243.737 132.882 243.346 135.353 241.8L394.864 79.4184C407.26 71.2098 418.531 75.7516 409.26 83.9601L199.199 272.577Z" fill="#2DA5E1"/>
</svg>
