<svg xmlns="http://www.w3.org/2000/svg" width="75" height="64" viewBox="0 0 75 64">
    <defs>
        <linearGradient id="a" x1="61.235%" x2="74.706%" y1="43.69%" y2="80.24%">
            <stop offset="0%" stop-color="#EFF7FC"/>
            <stop offset="100%" stop-color="#FFF"/>
        </linearGradient>
    </defs>
    <g fill="none" fill-rule="nonzero">
        <path fill="#C8DAEA" d="M28.09 60c-2.208 0-1.833-.865-2.594-3.047L19 34.774 69 4"/>
        <path fill="#A9C9DD" d="M29 60c1.636 0 2.36-.807 3.273-1.765L41 49.08 30.114 42"/>
        <path fill="url(#a)" d="M29.382 42.236l27.794 20.892c3.172 1.78 5.461.859 6.251-2.996L74.741 5.89C75.9 1.165 72.971-.978 69.937.423L3.502 26.486c-4.535 1.85-4.509 4.425-.827 5.571l17.049 5.414 39.47-25.334c1.863-1.15 3.573-.531 2.17.736"/>
    </g>
</svg>
