<?xml version="1.0" encoding="UTF-8"?>
<!DOCTYPE svg PUBLIC "-//W3C//DTD SVG 1.1//EN" "http://www.w3.org/Graphics/SVG/1.1/DTD/svg11.dtd">
<!-- Creator: CorelDRAW X8 -->
<svg xmlns="http://www.w3.org/2000/svg" xml:space="preserve" width="275.085mm" height="70.5801mm" version="1.1" style="shape-rendering:geometricPrecision; text-rendering:geometricPrecision; image-rendering:optimizeQuality; fill-rule:evenodd; clip-rule:evenodd"
viewBox="0 0 27520 7061"
 xmlns:xlink="http://www.w3.org/1999/xlink">
 <defs>
  <style type="text/css">
   <![CDATA[
    .fil0 {fill:black}
    .fil1 {fill:#8AB725}
    .fil2 {fill:#C4C400}
    .fil4 {fill:#E74011}
    .fil3 {fill:#EC951E}
   ]]>
  </style>
 </defs>
 <g id="Слой_x0020_1">
  <metadata id="CorelCorpID_0Corel-Layer"/>
  <path class="fil0" d="M27187 2067c159,0 231,-44 260,-73 29,-29 73,-101 73,-260 0,-145 -44,-232 -73,-261 -29,-29 -101,-72 -260,-72 -160,0 -232,43 -261,72 -29,29 -72,101 -72,261 0,159 43,231 72,260 29,29 101,73 261,73zm-3851 376l-1086 0c-72,0 -203,87 -203,232 0,246 203,217 276,217l1013 0c72,0 145,87 188,144 43,87 29,174 29,261l-825 0c-724,0 -796,420 -796,637l0 72c0,217 72,695 796,695l1332 0 0 -1404c0,-550 -261,-854 -724,-854l0 0zm-898 1520c0,-130 73,-232 290,-232l825 0 0 565 -825 0c-217,0 -290,-130 -290,-275l0 -58zm-6080 -1520l-1085 0c-73,0 -203,87 -203,232 0,246 203,217 275,217l1013 0c73,0 145,87 188,144 44,87 29,174 29,261l-825 0c-724,0 -796,420 -796,637l0 72c0,217 72,695 796,695l1332 0 0 -1404c0,-550 -260,-854 -724,-854l0 0zm-897 1520c0,-130 72,-232 289,-232l825 0 0 565 -825 0c-217,0 -289,-130 -289,-275l0 -58zm10582 -1520l-478 -15c-550,0 -738,391 -738,739l0 1534 521 0 0 -1549c0,-130 44,-260 232,-260l492 0c72,0 246,-29 246,-217 0,-189 -217,-232 -275,-232l0 0zm-5747 14l-1071 0 0 3417c0,72 57,188 260,188 203,0 261,-130 261,-188l0 -1158 550 0c260,0 1071,0 1071,-941l0 -391c0,-927 -796,-927 -1071,-927zm-550 449l550 0c333,0 550,87 550,463l0 377c0,391 -217,492 -550,492l-550 0 0 -1332zm-1636 -1911c-203,0 -261,131 -261,188l0 3518 521 0 0 -3518c0,-57 -43,-188 -260,-188zm9077 1448c-203,0 -261,130 -261,188l0 2070 521 0 0 -2070c-14,-72 -58,-188 -260,-188z"/>
  <path class="fil1" d="M12652 7046l-260 0c-29,0 -608,-14 -1043,-448l-1302 -1303c-87,-87 -174,-131 -261,-131 -72,0 -159,44 -261,131l-390 391c-44,43 -87,57 -131,57 -43,0 -101,-28 -130,-57l-912 -898c-87,-87 -174,-130 -261,-130 -72,0 -159,43 -260,130l-391 391c-72,72 -203,72 -275,0l-1129 -1173 -1679 1694c-44,43 -87,58 -131,58 -43,0 -101,-29 -130,-58l-391 -391c-188,-188 -318,-188 -507,0l-1288 1303c-434,434 -1013,449 -1042,449l-261 0c-101,0 -188,-87 -188,-203 0,-116 87,-188 188,-188l261 0c0,0 448,-14 767,-333l1303 -1303c333,-333 724,-333 1057,0l246 261 1650 -1694c72,-72 203,-72 275,0l1158 1158 261 -260c159,-160 333,-247 535,-247 189,0 362,87 522,247 188,188 564,564 767,767l260 -261c160,-159 333,-246 521,-246 189,0 362,87 522,246l1302 1303c333,333 768,333 768,333l260 0c102,0 189,87 189,188 0,131 -87,217 -189,217l0 0z"/>
  <path class="fil2" d="M12652 5859l-260 0c-29,0 -608,-14 -1043,-448l-1302 -1303c-189,-189 -319,-189 -507,0l-391 391c-72,72 -203,72 -275,0l-912 -912c-188,-189 -318,-189 -507,0l-391 390c-72,73 -202,73 -275,0l-1158 -1158 -1664 1694c-73,72 -203,72 -276,0l-390 -391c-189,-188 -319,-188 -507,0l-1303 1289c-434,448 -1013,448 -1042,448l-261 0c-101,0 -188,-87 -188,-188 0,-101 87,-188 188,-188l261 0c0,0 449,-15 767,-333l1303 -1303c333,-333 724,-333 1057,0l246 261 1679 -1694c72,-72 203,-72 275,0l1158 1158 261 -261c333,-332 724,-332 1057,0l767 768 260 -261c333,-333 724,-333 1057,0l1303 1303c318,318 767,333 767,333l261 0c101,0 188,87 188,188 -14,130 -101,217 -203,217l0 0z"/>
  <path class="fil3" d="M12667 4745l-261 0c-202,0 -608,-116 -1057,-565 -448,-434 -1129,-1115 -1302,-1288 -189,-189 -319,-189 -507,14l-391 391c-43,43 -87,58 -130,58 -58,0 -102,-29 -131,-58l-912 -898c-188,-188 -318,-188 -506,15l-391 391c-72,72 -203,72 -275,0l-1173 -1144 -1664 1694c-73,72 -203,72 -276,0l-390 -391c-189,-188 -319,-188 -507,15 -130,130 -565,579 -955,984l-319 318c-434,449 -1013,449 -1042,449l-261 0c-101,0 -203,-87 -203,-188 0,-101 87,-188 189,-203l260 0c15,0 449,-14 767,-333l319 -318c391,-405 825,-840 955,-985 333,-332 710,-332 1057,-14l261 246 1665 -1694c72,-72 202,-72 275,0l1172 1144 246 -261c333,-333 724,-333 1057,-14l782 767 246 -260c333,-333 709,-333 1057,-15 173,174 868,840 1302,1289 333,318 594,434 724,448 203,15 319,0 319,0 101,0 188,87 202,188 -14,116 -86,218 -202,218l0 0z"/>
  <path class="fil4" d="M12652 3500l-260 0c-29,0 -608,-15 -1043,-449l-1302 -1303c-87,-87 -189,-130 -261,-130 -72,0 -159,43 -261,130l-390 391c-44,43 -87,58 -131,58 -43,0 -101,-29 -130,-58l-912 -912c-87,-87 -174,-130 -261,-130 -72,0 -159,43 -260,130l-391 391c-43,43 -87,58 -130,58 -58,0 -102,-29 -131,-58l-1158 -1158 -1664 1693c-73,73 -203,73 -276,0l-390 -390c-189,-189 -319,-189 -507,0l-1288 1288c-435,434 -1014,449 -1043,449l-260 0c-102,0 -189,-87 -189,-189 0,-101 87,-188 189,-188l260 0c0,0 449,-14 767,-333l1303 -1303c160,-159 333,-246 522,-246 188,0 361,87 535,246l246 247 1665 -1680c72,-72 203,-72 275,0l1158 1158 261 -260c159,-159 333,-246 535,-246 189,0 362,87 522,246 188,188 564,564 767,767 58,-58 145,-145 260,-246 160,-159 333,-246 521,-246 189,0 362,87 522,246l1302 1303c333,333 768,333 768,333l260 0c102,0 189,87 189,188 0,116 -87,203 -189,203l0 0z"/>
 </g>
</svg>
