<?xml version="1.0" encoding="UTF-8"?>
<!DOCTYPE svg PUBLIC "-//W3C//DTD SVG 1.1//EN" "http://www.w3.org/Graphics/SVG/1.1/DTD/svg11.dtd">
<!-- Creator: CorelDRAW X8 -->
<svg xmlns="http://www.w3.org/2000/svg" xml:space="preserve" width="277.448mm" height="60.0301mm" version="1.1" style="shape-rendering:geometricPrecision; text-rendering:geometricPrecision; image-rendering:optimizeQuality; fill-rule:evenodd; clip-rule:evenodd"
viewBox="0 0 27736 6001"
 xmlns:xlink="http://www.w3.org/1999/xlink">
 <defs>
  <style type="text/css">
   <![CDATA[
    .fil1 {fill:#0B0D11}
    .fil2 {fill:#D57C1B}
    .fil0 {fill:url(#id0)}
   ]]>
  </style>
  <linearGradient id="id0" gradientUnits="userSpaceOnUse" x1="2923.71" y1="0.00999672" x2="2923.71" y2="5986.42">
   <stop offset="0" style="stop-opacity:1; stop-color:#DB8F1B"/>
   <stop offset="1" style="stop-opacity:1; stop-color:#D57D1B"/>
  </linearGradient>
 </defs>
 <g id="Слой_x0020_1">
  <metadata id="CorelCorpID_0Corel-Layer"/>
  <path id="XMLID_2_" class="fil0" d="M3 5899l2073 -5695c44,-116 161,-204 292,-204l891 0c131,0 248,73 292,204l1183 3242 452 0c88,0 175,58 205,146l189 496c15,44 -14,103 -73,103l-511 -1 103 307 452 0c88,0 175,59 205,146l189 497c15,43 -14,102 -73,102l-511 0 234 657c15,44 -15,102 -73,102l-920 0c-87,0 -175,-58 -204,-146l-219 -599 -2774 0c-59,0 -88,-58 -73,-102l189 -496c30,-88 117,-146 205,-146l2205 0 -103 -307 -2044 0c-58,0 -87,-58 -73,-102l190 -497c29,-87 117,-146 204,-146l1431 0 -876 -2409c-29,-73 -117,-73 -146,0l-1752 4804c-29,88 -117,146 -204,146l-482 0c-44,0 -88,-58 -73,-102z"/>
  <g id="XMLID_55_">
   <circle id="XMLID_53_" class="fil1" cx="9421" cy="2482" r="263"/>
   <g id="XMLID_56_">
    <path id="XMLID_150_" class="fil1" d="M7931 3446c0,0 146,-161 146,-190 0,-15 0,-58 -14,-102 -15,-44 -176,-511 -205,-599l-876 0c-29,88 -146,365 -175,438 -44,117 -88,263 -73,278l161 160 -555 0c0,0 146,-117 160,-131 15,-15 44,-59 73,-102 30,-59 745,-1738 803,-1855l-14 -44c44,-14 277,-262 292,-277l29 0c73,190 803,2117 832,2176 0,14 219,248 219,248l-803 0zm-511 -1986c-14,29 -350,862 -409,993l803 0c-43,-102 -73,-204 -116,-292 -44,-102 -73,-190 -117,-292 -29,-88 -73,-175 -102,-248 -30,-73 -44,-102 -59,-161l0 0z"/>
    <path id="XMLID_147_" class="fil1" d="M14808 3446c0,0 146,-161 146,-190 0,-15 0,-58 -14,-102 -15,-44 -175,-511 -205,-599l-876 0c-29,88 -146,365 -175,438 -44,117 -88,263 -73,278l161 160 -555 0c0,0 146,-117 160,-131 15,-15 44,-59 73,-102 30,-59 745,-1738 803,-1855l-14 -44c44,-14 277,-262 292,-277l29 0c73,190 803,2117 832,2176 0,14 219,248 219,248l-803 0zm-511 -1986c-14,29 -350,862 -409,993l804 0c-44,-102 -73,-204 -117,-292 -44,-102 -73,-190 -117,-292 -29,-88 -73,-175 -102,-248 -15,-73 -30,-102 -59,-161l0 0z"/>
    <path id="XMLID_85_" class="fil1" d="M12034 3446c0,0 234,-175 248,-219 15,-29 30,-59 30,-102 0,-44 14,-1811 14,-1811 -58,146 -934,2059 -934,2073l-15 0c-73,-160 -920,-2088 -934,-2102l0 1752c0,73 29,146 43,190 30,58 219,219 219,219l-627 0c0,0 146,-175 175,-219 29,-59 44,-117 58,-190 15,-73 29,-1548 29,-1606 0,-58 -14,-117 -43,-146 -30,-44 -161,-190 -161,-190l599 0 759 1738c102,-205 818,-1723 818,-1738l613 0c0,0 -190,161 -205,219 0,0 -14,58 -14,146l0 1694c0,44 14,73 29,102l234 190 -935 0z"/>
    <path id="XMLID_76_" class="fil1" d="M17641 3446l-44 -44 -29 -29c-15,-15 -29,-29 -44,-59 -15,-29 -44,-58 -73,-116 -44,-59 -73,-117 -117,-161 -29,-44 -58,-102 -102,-146 -29,-44 -73,-102 -102,-146 -44,-44 -88,-102 -132,-161 -43,-43 -87,-102 -146,-146 -58,-43 -102,-73 -160,-87 -44,-15 -73,-15 -102,-15l-73 0c0,146 14,774 14,818 0,44 15,87 29,131 15,29 205,175 205,175l-847 0c0,0 161,-116 190,-146 14,-14 14,-29 29,-58 0,-29 29,-1825 29,-1869 0,-29 -14,-73 -14,-102 -15,-29 -15,-59 -30,-59 -29,-29 -160,-131 -160,-131 14,0 1080,0 1197,15 117,14 219,43 307,87 102,44 175,117 233,205 59,87 88,190 88,321 0,88 -15,161 -44,219 -29,58 -73,117 -117,175 -43,44 -102,88 -175,132 -73,29 -131,58 -204,87l0 15c44,14 73,44 102,87 29,44 73,73 102,132 59,87 117,175 190,277 73,102 131,190 175,263 88,117 161,204 234,248 73,59 219,132 219,132l-628 0 0 -44zm-336 -2059c-58,-88 -131,-161 -234,-204 -58,-30 -175,-30 -219,-30 -58,0 -306,0 -306,15l0 1081c87,0 409,0 482,-15 73,-29 131,-58 175,-88 44,-43 87,-73 117,-131 29,-44 58,-102 73,-161 14,-58 29,-116 29,-175 -29,-117 -59,-204 -117,-292l0 0z"/>
    <path id="XMLID_71_" class="fil1" d="M20211 3446c-15,0 -15,-15 -30,-15 -14,-14 -29,-14 -29,-29 -146,-161 -277,-321 -394,-467l-394 -438 -117 -117c-15,-15 -44,-29 -58,-29 -15,0 -30,0 -30,14 0,15 -14,15 -14,44l0 584c0,59 0,117 14,175 0,59 15,103 44,132 15,29 29,44 59,58 29,15 189,102 189,102l-949 0c0,0 205,-116 219,-146 15,-14 15,-29 30,-58 0,-29 14,-58 14,-88l0 -102 0 -117 0 -131 0 -175 0 -190 0 -847c0,-87 0,-161 -14,-234 0,-73 -15,-116 -44,-146 -29,-43 -219,-146 -219,-146l920 0c0,0 -146,73 -176,103 -29,29 -58,58 -73,116 -14,44 -29,117 -29,220l0 744c44,-29 847,-788 876,-832 29,-44 44,-88 44,-132 0,-58 -146,-233 -146,-233l759 0c0,0 -175,88 -292,175 -117,88 -233,175 -350,292 -44,44 -88,88 -146,132l-146 146c-44,43 -88,102 -146,146 -44,43 -88,87 -117,131 15,29 58,73 117,146 58,73 146,161 233,263 88,102 176,204 278,321 102,117 190,219 292,321 29,29 44,59 73,73 29,29 58,44 88,73 29,15 43,44 73,59 14,14 29,29 43,29 30,14 161,87 161,87l-613 0 0 -14z"/>
    <path id="XMLID_66_" class="fil1" d="M23087 3446l-1956 0c0,0 175,-117 204,-161 15,-14 15,-29 29,-58 0,-29 29,-1825 29,-1869 0,-44 -14,-73 -14,-102 -15,-30 -15,-59 -29,-59 -30,-29 -176,-131 -176,-131l1738 0 190 438c0,0 -336,-234 -497,-321 -44,-15 -102,-30 -204,-30 -102,-14 -599,-14 -613,0 0,30 -15,1023 -15,1023l409 0c73,-15 117,-30 160,-59 44,-29 73,-58 103,-102l146 -219 0 876c0,0 -190,-263 -234,-292 -29,-29 -73,-44 -131,-73 -44,-15 -103,-29 -176,-29l-306 0c0,29 0,832 14,890 0,59 15,88 44,117 15,29 88,44 161,44 146,15 642,15 744,-29 59,-29 117,-44 176,-88 58,-44 336,-321 336,-321l-132 555 0 0z"/>
    <path id="XMLID_62_" class="fil1" d="M25540 1270c-44,-44 -102,-73 -146,-87 -58,-15 -117,-30 -204,-30l-409 0 0 1986c0,59 14,102 29,117 29,44 248,175 248,175l-949 0c0,0 205,-117 248,-175 15,-15 15,-29 30,-58 0,-30 14,-59 14,-88l0 -102 0 -102 0 -117 0 -175 0 -190 0 -1271 -423 0c-88,0 -146,15 -205,30 -58,14 -102,43 -146,87 -14,15 -277,292 -277,292l88 -525c43,14 2248,0 2306,-15l88 540c0,15 -277,-277 -292,-292l0 0z"/>
    <path id="XMLID_57_" class="fil1" d="M27686 3081c-43,87 -102,160 -175,219 -73,58 -160,102 -277,131 -102,29 -219,44 -351,44 -102,0 -204,0 -277,-15 -73,-14 -146,-29 -190,-43 -44,-15 -87,-30 -117,-44 -29,-15 -43,-29 -43,-29l-132 116 -14 -598c0,0 175,233 204,277 29,44 73,88 117,132 44,43 73,73 117,87 43,15 233,59 292,59 160,0 335,-15 438,-103 102,-87 146,-204 146,-365 0,-58 -15,-116 -30,-160 -14,-44 -43,-88 -87,-117 -29,-29 -73,-58 -117,-88 -44,-29 -102,-43 -146,-73 -58,-14 -102,-29 -131,-43 -44,-15 -73,-30 -117,-44 -29,-15 -73,-29 -102,-29 -30,-15 -73,-30 -132,-44 -58,-15 -117,-59 -160,-88 -59,-44 -103,-87 -146,-131 -44,-59 -73,-102 -103,-175 -29,-59 -29,-132 -29,-205 0,-117 15,-219 59,-307 43,-87 102,-160 175,-219 73,-58 160,-102 248,-131 102,-29 190,-44 307,-44 102,0 189,15 248,29 73,15 131,30 175,59 44,14 73,44 102,58 29,15 29,29 44,29l131 -116 0 525c0,0 -233,-263 -277,-321 -58,-58 -73,-88 -146,-117 -73,-29 -219,-44 -307,-44 -73,0 -131,15 -189,30 -59,14 -73,14 -132,58 -44,44 -87,88 -102,146 -29,58 -44,131 -44,204 0,117 29,205 102,278 73,73 161,131 278,175 44,15 87,29 117,44 43,15 73,29 116,44 44,14 73,29 117,44 44,14 73,29 117,43 146,59 263,132 350,234 88,102 117,234 117,394 15,44 0,146 -44,234l0 0z"/>
   </g>
  </g>
  <g id="XMLID_204_">
   <path id="XMLID_242_" class="fil2" d="M12224 4293c-44,87 -102,190 -146,277l0 394 -161 0 0 -394c-43,-87 -102,-190 -146,-277 -44,-88 -102,-190 -146,-278l176 0 116 234 44 88 44 87 88 -190 116 -233 176 0c-59,116 -103,204 -161,292z"/>
   <path id="XMLID_239_" class="fil2" d="M12662 4278c44,0 102,15 131,29 44,15 73,44 103,88 14,29 29,58 43,102 15,44 15,73 15,132 0,58 0,102 -15,131 -14,44 -14,73 -29,102 -29,44 -58,73 -102,102 -44,15 -88,30 -146,30 -44,0 -102,-15 -131,-30 -44,-14 -73,-43 -103,-87 -43,-59 -58,-132 -58,-234 0,-29 0,-73 15,-102 0,-29 14,-58 29,-88 29,-43 58,-87 102,-116 29,-44 88,-59 146,-59zm0 146c-29,0 -44,0 -73,15 -15,14 -44,29 -44,58 -14,15 -14,44 -14,59l0 146c0,14 14,43 14,58 15,29 29,44 44,58 15,15 44,15 73,15 29,0 58,-15 73,-29 29,-15 44,-44 44,-73 0,-15 14,-29 14,-44l0 -73c0,-58 0,-88 -14,-117 -15,-29 -29,-44 -44,-58 -29,-15 -44,-15 -73,-15z"/>
   <path id="XMLID_237_" class="fil2" d="M13246 4293l0 409c0,43 15,87 29,102 15,29 59,29 102,29 30,0 73,-15 88,-29 29,-29 44,-59 44,-102l0 -409 160 0 0 671 -160 0 0 -73c-15,30 -44,44 -73,59 -29,14 -59,14 -88,14 -73,0 -131,-14 -175,-58 -44,-44 -58,-102 -58,-175l0 -438 131 0z"/>
   <path id="XMLID_235_" class="fil2" d="M14122 4424c-44,0 -73,15 -88,29 -29,30 -29,59 -29,103l0 408 -160 0 0 -671 146 0 0 87c43,-58 102,-87 160,-87 29,0 44,0 73,14 15,0 44,15 59,30l-59 146c-14,-15 -44,-15 -58,-30 0,-14 -29,-29 -44,-29z"/>
   <path id="XMLID_232_" class="fil2" d="M14998 4278c44,0 102,15 132,29 43,15 73,44 102,88 14,29 29,58 44,102 14,44 14,73 14,132 0,58 0,102 -14,131 -15,44 -15,73 -30,102 -29,44 -58,73 -102,102 -44,15 -87,30 -146,30 -44,0 -102,-15 -131,-30 -44,-14 -73,-43 -103,-87 -43,-59 -58,-132 -58,-234 0,-29 0,-73 15,-102 0,-29 14,-58 29,-88 29,-43 58,-87 102,-116 29,-44 88,-59 146,-59zm0 146c-29,0 -44,0 -73,15 -14,14 -44,29 -44,58 -14,15 -14,44 -14,59l0 146c0,14 14,43 14,58 15,29 30,44 44,58 15,15 44,15 73,15 29,0 59,-15 73,-29 29,-15 44,-44 44,-73 0,-15 15,-29 15,-44l0 -73c0,-58 0,-88 -15,-117 -15,-29 -29,-44 -44,-58 -29,-15 -44,-15 -73,-15z"/>
   <path id="XMLID_230_" class="fil2" d="M15845 4964l0 -408c0,-44 -15,-73 -29,-103 -15,-29 -59,-29 -102,-29 -44,0 -73,15 -88,29 -29,30 -44,59 -44,103l0 408 -160 0 0 -671 160 0 0 73c15,-30 44,-44 88,-59 29,-14 58,-14 102,-14 73,0 131,14 161,58 43,44 58,102 58,175l0 438 -146 0z"/>
   <path id="XMLID_228_" class="fil2" d="M16356 4964c-29,0 -44,0 -73,-14 -29,0 -44,-15 -58,-29 -15,-15 -30,-30 -44,-59 -15,-29 -15,-58 -15,-87l0 -818 161 0 0 788c0,30 0,44 14,59 15,14 30,14 44,14l29 0 0 146 -58 0z"/>
   <path id="XMLID_225_" class="fil2" d="M16546 4161l0 -146 160 0 0 146 -160 0zm0 803l0 -671 160 0 0 671 -160 0z"/>
   <path id="XMLID_223_" class="fil2" d="M17290 4964l0 -408c0,-44 -14,-73 -29,-103 -14,-29 -58,-29 -102,-29 -44,0 -73,15 -88,29 -29,30 -43,59 -43,103l0 408 -161 0 0 -671 161 0 0 73c29,-30 43,-44 87,-59 29,-14 59,-14 102,-14 73,0 132,14 161,58 44,44 59,102 59,175l0 438 -147 0z"/>
   <path id="XMLID_220_" class="fil2" d="M17743 4672c0,15 0,44 15,59 0,14 14,44 29,58 15,15 29,29 44,29 14,15 44,15 58,15 15,0 44,0 73,-15l88 -43c14,14 29,29 44,58 14,15 29,29 43,58 -43,30 -73,59 -131,73 -44,15 -88,15 -131,15 -30,0 -73,0 -103,-15 -29,-14 -73,-29 -102,-58 -29,-29 -58,-58 -73,-102 -14,-44 -29,-102 -29,-175 0,-59 15,-117 29,-161 15,-44 44,-73 73,-102 29,-30 59,-44 102,-59 30,-14 73,-14 103,-14 43,0 87,14 116,29 30,15 73,44 88,58 29,30 44,59 58,103 15,43 15,87 15,131l0 58 -409 0zm132 -248c-30,0 -59,15 -88,44 -29,29 -44,58 -44,102l263 0c0,-44 -15,-87 -44,-102 -29,-29 -58,-44 -87,-44l0 0z"/>
   <path id="XMLID_217_" class="fil2" d="M19232 4614c0,44 0,88 -14,117 0,44 -15,87 -29,117 -15,29 -44,58 -73,87 -30,29 -73,29 -132,29 -29,0 -58,0 -87,-14 -30,-15 -59,-29 -73,-59l0 73 -161 0 0 -993 161 0 0 380c29,-29 43,-44 73,-58 29,-15 58,-15 87,-15 44,0 88,15 117,29 29,15 58,44 73,73 15,30 29,73 29,103 15,58 29,102 29,131zm-160 15l0 -73c0,-30 -15,-44 -15,-59 -14,-14 -14,-29 -44,-44 -14,-14 -43,-14 -73,-14 -29,0 -43,0 -73,14l-43 44c-15,15 -15,44 -15,59l0 146c0,29 15,43 15,73 14,14 14,43 43,58 15,15 44,15 73,15 30,0 59,0 73,-15l44 -44c15,-14 15,-44 15,-73l0 -87z"/>
   <path id="XMLID_215_" class="fil2" d="M19656 4424c-44,0 -73,15 -88,29 -29,30 -29,59 -29,103l0 408 -161 0 0 -671 146 0 0 87c44,-58 103,-87 161,-87 29,0 44,0 73,14 15,0 44,15 58,30l-58 146c-15,-15 -44,-15 -58,-30 0,-14 -15,-29 -44,-29z"/>
   <path id="XMLID_212_" class="fil2" d="M20167 4278c44,0 102,15 131,29 44,15 73,44 102,88 15,29 30,58 44,102 15,44 15,73 15,132 0,58 0,102 -15,131 -14,44 -14,73 -29,102 -29,44 -58,73 -102,102 -44,15 -88,30 -146,30 -44,0 -102,-15 -132,-30 -43,-14 -73,-43 -102,-87 -44,-59 -58,-132 -58,-234 0,-29 0,-73 14,-102 0,-29 15,-58 30,-88 29,-43 58,-87 102,-116 29,-44 73,-59 146,-59zm-15 146c-29,0 -44,0 -73,15 -14,14 -44,29 -44,58 -14,15 -14,44 -14,59l0 146c0,14 14,43 14,58 15,29 30,44 44,58 15,15 44,15 73,15 29,0 59,-15 73,-29 29,-15 44,-44 44,-73 0,-15 15,-29 15,-44l0 -73c0,-58 0,-88 -15,-117 -15,-29 -29,-44 -44,-58 -14,-15 -44,-15 -73,-15z"/>
   <path id="XMLID_210_" class="fil2" d="M21043 4964c-29,-43 -73,-102 -102,-146 -29,-43 -59,-102 -102,-146 -15,15 -30,30 -44,59 -15,14 -29,29 -44,58l0 175 -161 0 0 -993 161 0 0 599 131 -146 117 -131 190 0 -248 263c44,73 87,131 146,204 44,73 87,131 146,204l-190 0z"/>
   <path id="XMLID_207_" class="fil2" d="M21423 4672c0,15 0,44 14,59 0,14 15,44 29,58 15,15 30,29 44,29 15,15 44,15 59,15 14,0 43,0 73,-15l87 -43c15,14 29,29 44,58 15,15 29,29 44,58 -44,30 -73,59 -132,73 -43,15 -87,15 -131,15 -29,0 -73,0 -102,-15 -29,-14 -73,-29 -102,-58 -30,-29 -59,-58 -73,-102 -15,-44 -30,-102 -30,-175 0,-59 15,-117 30,-161 14,-44 43,-73 73,-102 29,-30 58,-44 102,-59 29,-14 73,-14 102,-14 44,0 88,14 117,29 29,15 73,44 87,58 30,30 44,59 59,103 14,43 14,87 14,131l0 58 -408 0zm146 -248c-30,0 -59,15 -88,44 -29,29 -44,58 -44,102l263 0c0,-44 -15,-87 -44,-102 -29,-29 -58,-44 -87,-44l0 0z"/>
   <path id="XMLID_205_" class="fil2" d="M22284 4424c-44,0 -73,15 -88,29 -29,30 -29,59 -29,103l0 408 -160 0 0 -671 146 0 0 87c43,-58 102,-87 160,-87 29,0 44,0 73,14 15,0 44,15 59,30l-59 146c-14,-15 -44,-15 -58,-30 0,-14 -29,-29 -44,-29l0 0z"/>
  </g>
 </g>
</svg>
