<?xml version="1.0" encoding="UTF-8"?>
<!DOCTYPE svg PUBLIC "-//W3C//DTD SVG 1.1//EN" "http://www.w3.org/Graphics/SVG/1.1/DTD/svg11.dtd">
<!-- Creator: CorelDRAW X8 -->
<svg xmlns="http://www.w3.org/2000/svg" xml:space="preserve" width="12.5894mm" height="11.1793mm" version="1.1" style="shape-rendering:geometricPrecision; text-rendering:geometricPrecision; image-rendering:optimizeQuality; fill-rule:evenodd; clip-rule:evenodd"
viewBox="0 0 1361 1209"
 xmlns:xlink="http://www.w3.org/1999/xlink">
 <defs>
  <style type="text/css">
   <![CDATA[
    .fil0 {fill:#488DC6}
   ]]>
  </style>
 </defs>
 <g id="Слой_x0020_1">
  <metadata id="CorelCorpID_0Corel-Layer"/>
  <path class="fil0" d="M1014 476l216 -124 -615 -352 -615 352 216 124 -216 124 216 124 -216 124 615 354 239 -138 -34 -32 -205 118 -525 -302 172 -98 353 204 615 -354 -216 -124zm-399 -424l525 300 -525 302 -525 -302 525 -300zm-353 450l353 204 354 -204 171 98 -525 302 -525 -302 172 -98z"/>
  <path class="fil0" d="M1109 729l78 159 174 25 -126 122 30 174 -156 -82 -155 82 30 -174 -127 -122 175 -25 77 -159zm0 100l-48 99 -109 15 79 77 -19 108 97 -51 98 51 -19 -108 79 -77 -109 -15 -49 -99z"/>
 </g>
</svg>
