<?xml version="1.0" encoding="UTF-8"?>
<!DOCTYPE svg PUBLIC "-//W3C//DTD SVG 1.1//EN" "http://www.w3.org/Graphics/SVG/1.1/DTD/svg11.dtd">
<!-- Creator: CorelDRAW X7 -->
<svg xmlns="http://www.w3.org/2000/svg" xml:space="preserve" width="650px" height="650px" version="1.1" style="shape-rendering:geometricPrecision; text-rendering:geometricPrecision; image-rendering:optimizeQuality; fill-rule:evenodd; clip-rule:evenodd"
viewBox="0 0 650 650"
 xmlns:xlink="http://www.w3.org/1999/xlink">
 <defs>
  <style type="text/css">
   <![CDATA[
    .fil2 {fill:#FEFEFE}
    .fil0 {fill:black}
    .fil1 {fill:white}
   ]]>
  </style>
   <mask id="id0">
  <linearGradient id="id1" gradientUnits="userSpaceOnUse" x1="207.816" y1="223.154" x2="537.314" y2="500.641">
   <stop offset="0" style="stop-opacity:0.25098; stop-color:white"/>
   <stop offset="1" style="stop-opacity:0; stop-color:white"/>
  </linearGradient>
    <rect style="fill:url(#id1)" x="148" y="150" width="449" height="425"/>
   </mask>
 </defs>
 <g id="Слой_x0020_1">
  <metadata id="CorelCorpID_0Corel-Layer"/>
  <path class="fil0" style="mask:url(#id0)" d="M416 574l-153 -158 21 -21 2 1 154 154 -24 24zm-127 -183l-49 -50 31 -8 -44 -46 27 -7 -39 -41 5 -5 -71 -73 48 -7 21 67 -12 -71 77 79 -3 3 5 0 0 0c1,0 3,0 5,1l123 1 -1 -1 22 -4 162 166 -151 151 -156 -156 0 1z"/>
  <path class="fil1" d="M434 229l-210 0 -18 -79 -57 0 0 11 49 0 17 78 7 0 212 0 0 -10zm-24 101l-170 0 0 11 170 0 0 -11zm13 -53l-196 0 0 10 196 0 0 -10z"/>
  <circle class="fil1" cx="381" cy="406" r="15"/>
  <circle class="fil2" cx="274" cy="406" r="15"/>
 </g>
</svg>
