<?xml version="1.0" encoding="UTF-8"?>
<!DOCTYPE svg PUBLIC "-//W3C//DTD SVG 1.1//EN" "http://www.w3.org/Graphics/SVG/1.1/DTD/svg11.dtd">
<!-- Creator: CorelDRAW X6 -->
<svg xmlns="http://www.w3.org/2000/svg" xml:space="preserve" width="64.1356mm" height="65.2047mm" version="1.1" style="shape-rendering:geometricPrecision; text-rendering:geometricPrecision; image-rendering:optimizeQuality; fill-rule:evenodd; clip-rule:evenodd"
viewBox="0 0 6414 6520"
 xmlns:xlink="http://www.w3.org/1999/xlink">
 <defs>
  <style type="text/css">
   <![CDATA[
    .fil0 {fill:#F4B213}
    .fil1 {fill:#325862;fill-rule:nonzero}
   ]]>
  </style>
 </defs>
 <g id="Слой_x0020_1">
  <metadata id="CorelCorpID_0Corel-Layer"/>
  <g id="_625426720">
   <polygon class="fil0" points="1497,114 116,1378 831,1396 858,3402 2035,3406 2053,1387 2754,1382 "/>
   <path class="fil1" d="M380 1283l1113 -1028 1028 1028 -490 0c-59,0 -107,48 -107,107l0 1924 -962 0 0 -1924c0,-59 -48,-107 -107,-107l-475 0zm5071 -1176l0 641 214 0 0 -641 -214 0zm-3527 5665l0 641 214 0 0 -641 -214 0zm-1176 -1603l0 214 214 0 0 -214 -214 0zm534 2031l0 214 214 0 0 -214 -214 0zm0 -2458l0 641 214 0 0 -641 -214 0zm0 855l0 214 214 0 0 -214 -214 0zm-534 1710l0 214 214 0 0 -214 -214 0zm0 -534l0 214 214 0 0 -214 -214 0zm0 -855l0 641 214 0 0 -641 -214 0zm0 -1176l0 214 214 0 0 -214 -214 0zm534 1496l0 748 214 0 0 -748 -214 0zm641 -214l0 214 214 0 0 -214 -214 0zm0 -1283l0 1069 214 0 0 -1069 -214 0zm2886 -3741l0 214 214 0 0 -214 -214 0zm0 2138l0 535 214 0 0 -535 -214 0zm0 -428l0 214 214 0 0 -214 -214 0zm-534 -1390l0 214 214 0 0 -214 -214 0zm0 428l0 214 214 0 0 -214 -214 0zm0 428l0 641 214 0 0 -641 -214 0zm0 1069l0 428 214 0 0 -428 -214 0zm534 -1817l0 748 214 0 0 -748 -214 0zm641 962l0 214 214 0 0 -214 -214 0zm0 427l0 855 214 0 0 -855 -214 0zm-1603 2886l535 0c59,0 107,-48 107,-107l0 -1496 962 0 0 1496c0,59 48,107 107,107l524 0 -1162 1430 -1072 -1430zm1152 1671l1390 -1710c37,-46 30,-113 -16,-150 -19,-15 -43,-24 -67,-24l-641 0 0 -1496c0,-59 -48,-107 -107,-107l-1176 0c-59,0 -107,48 -107,107l0 1496 -641 0c-59,0 -107,48 -107,107 0,23 8,46 21,64l1283 1710c36,47 102,57 150,21 7,-5 13,-11 19,-18l0 0zm-5000 -4984c0,59 48,107 107,107l641 0 0 1924c0,59 48,107 107,107l1176 0c59,0 107,-48 107,-107l0 -1924 641 0c59,0 107,-48 107,-107 0,-28 -11,-56 -31,-76l-1283 -1283c-21,-21 -48,-31 -76,-31 -26,0 -52,9 -72,28l-1390 1283c-22,20 -34,49 -34,79z"/>
  </g>
 </g>
</svg>
