<svg width="64" height="64" viewBox="0 0 64 64" fill="none" xmlns="http://www.w3.org/2000/svg">
<g clip-path="url(#clip0)">
<path d="M21.5 14.8125H38.5626L41.2501 12.125L44.0001 5.93751L45.4376 1.3125H42.2501L33.8751 2.0625L26.0001 1.3125L26.8751 5.37501H20.6875L16.625 4.06251L17.75 9.00002L21.5 14.8125Z" fill="#F3B113"/>
<path d="M16.875 24L20.3125 18.6875H37.6251L41.2501 20.9375L44.8126 24.5625L51.1251 32.8126L53.9376 40.8751V48.2501L50.2501 55.6876L43.0001 61.0001L32.6251 63.1251L22.875 62.4376L14.4375 58.8126L8.75002 52.3751L6.75002 45.3126L7.68752 38.1251L10.625 31.5001L16.875 24Z" fill="#F3B113"/>
<path d="M22.9375 37.6876L25.5625 41.5001L29.6876 42.3126L32.9376 42.8751L34.6251 44.6876L35.1876 47.1876L33.6251 49.3126L30.1251 50.1251L27.0625 49.3126L26.25 47.1876L25.0625 45.3751L22.9375 46.0626V48.3126L25.0625 51.6251L28.4376 53.3751L28.7501 55.1876L30.1251 57.1876L31.8751 56.2501V53.3751L33.6251 52.3126L36.7501 50.1251L38.1876 46.5626L37.5626 43.2501L34.0001 39.9376L30.1251 39.5001L27.625 38.5626L26.25 36.0626V33.5626L28.4376 32.1251L32.3751 31.6251L34.6251 33.5626L35.1876 36.3751L36.3751 38.0626L38.1876 37.2501V34.3751L36.7501 30.4376L32.3751 28.5626L31.4376 24.9375H29.6876L28.7501 28.5626L25.0625 30.4376L22.9375 33.5626V37.6876Z" fill="#14324B"/>
<path d="M19 18.6875H24.25H34.6251L37.5626 18.9375L40.2501 20.3125H42.3126L54.9376 22.9375L57.0626 21.4375L56.2501 19.4375L50.5626 17.3125V16.625L53.8751 15.25L54.9376 12.6875L52.6876 11.6875L43.1251 13.9375L39.9376 12.6875C39.3542 13.3334 38.1126 14.625 37.8126 14.625H19L17.375 16.625L19 18.6875Z" fill="#14324B"/>
<path d="M39.5262 14.7019H39.6009C39.6011 14.7019 39.5428 14.5557 39.5262 14.7019Z" fill="white"/>
<path d="M21.4684 14.7019H21.5432C21.5265 14.5557 21.4684 14.7019 21.4684 14.7019Z" fill="white"/>
<path d="M57.5621 19.3059C57.1425 18.636 56.4873 18.1697 55.717 17.9927L51.6599 17.0604L53.5331 16.536C55.0853 16.1017 56.0204 14.4439 55.5853 12.8889C55.1507 11.3368 53.4932 10.4019 51.938 10.8368L43.2035 13.2814C42.9761 12.8677 42.6527 12.5135 42.2632 12.25C44.0359 8.95114 46.5897 3.35301 46.5897 0.944627C46.5897 0.357251 46.0345 -0.0972498 45.4584 0.0188755C41.992 0.719127 38.7601 1.04225 35.582 1.00763C32.3152 0.971752 28.2496 0.566002 25.6951 0.0210005C24.9053 -0.1475 24.2716 0.736252 24.6881 1.4305C25.3106 2.46801 25.6919 3.56501 25.9016 4.67064C22.6954 4.76889 19.3705 4.38038 16.854 3.12201C16.1762 2.78301 15.376 3.37613 15.5 4.12201C16.2915 8.87039 17.8883 11.6544 19.4892 13.7578H19.4537C17.822 13.7578 16.4945 15.0853 16.4945 16.7169C16.4945 18.2175 17.6177 19.4599 19.0672 19.65C18.0105 21.4198 16.5015 23.0989 14.916 24.8609C11.5444 28.6079 7.72277 32.8549 6.43702 39.7123C5.82177 42.9935 5.84227 46.0636 6.49814 48.8376C7.1104 51.4274 8.27652 53.7715 9.9639 55.8047C12.2038 58.5037 15.2812 60.5979 19.1104 62.0294C22.5598 63.3188 26.5102 64.0003 30.5347 64.0003C34.5592 64.0003 38.5097 63.3188 41.959 62.0294C45.7882 60.5979 48.8656 58.5036 51.1055 55.8047C52.7929 53.7715 53.959 51.4275 54.5712 48.8376C55.227 46.0636 55.2476 42.9933 54.6324 39.7123C53.3466 32.8551 49.5251 28.6081 46.1535 24.8611C45.0089 23.5889 43.9198 22.376 43.0068 21.145L54.3917 23.7608C55.5979 24.0379 56.8831 23.5103 57.5494 22.468C58.1591 21.5138 58.1628 20.2644 57.5621 19.3059ZM35.5612 2.89626C38.4691 2.92801 41.4121 2.67376 44.5207 2.11975C43.9507 4.45013 42.1203 8.59489 40.3842 11.7523C39.1811 11.8429 38.1768 12.6557 37.8046 13.7577H35.1826C35.1233 13.63 35.0577 13.4902 34.9846 13.3348C34.1738 11.6113 32.4866 8.02502 32.4866 4.97401C32.4866 4.38751 31.9327 3.93276 31.3569 4.04801C30.2579 4.26788 29.0488 4.44576 27.7907 4.55726C27.6588 3.76926 27.4542 2.98001 27.1567 2.20375C29.6942 2.59651 32.8906 2.86688 35.5612 2.89626ZM41.6787 14.7019V18.7314C41.6787 19.3215 41.1986 19.8018 40.6083 19.8018C40.0181 19.8018 39.538 19.3217 39.538 18.7314V14.7019C39.538 14.1117 40.0181 13.6315 40.6083 13.6315C41.1986 13.6315 41.6787 14.1118 41.6787 14.7019ZM17.7015 5.51339C20.0625 6.31926 22.9669 6.67664 26.1036 6.56639L27.9753 6.44814C28.8582 6.36714 29.7539 6.25051 30.6563 6.09789C30.9508 9.01964 32.2856 12.0219 33.0966 13.7577H26.8082H24.8214H21.8994C21.8783 13.7245 21.8556 13.692 21.8299 13.661C20.2503 11.7606 18.6474 9.56252 17.7015 5.51339ZM44.7494 26.1242C47.955 29.6864 51.5879 33.7239 52.7761 40.0601C53.8695 45.8916 52.8184 50.7829 49.652 54.598C45.7477 59.3024 38.6011 62.1111 30.5348 62.1111C22.4686 62.1111 15.3218 59.3025 11.4175 54.5981C8.25115 50.783 7.20015 45.8917 8.2934 40.0602C9.48153 33.7239 13.1147 29.6863 16.3202 26.1242C18.2368 23.994 20.0475 21.9793 21.2081 19.6759H23.5146C24.0363 19.6759 24.4589 19.253 24.4589 18.7315C24.4589 18.2099 24.0362 17.7872 23.5146 17.7872H19.4535C18.8633 17.7872 18.3832 17.307 18.3832 16.7168C18.3832 16.1265 18.8633 15.6464 19.4535 15.6464H37.6491V17.787H28.0161C27.4943 17.787 27.0717 18.2099 27.0717 18.7314C27.0717 19.2529 27.4944 19.6758 28.0161 19.6758H37.8045C38.1996 20.8455 39.3067 21.6905 40.6082 21.6905C40.7586 21.6905 40.9061 21.679 41.0506 21.6574C42.1046 23.182 43.3893 24.6129 44.7494 26.1242ZM43.5676 15.1409L52.447 12.6558C53.0092 12.4982 53.6092 12.8369 53.7662 13.398C53.9235 13.9604 53.5854 14.5602 53.024 14.7172L47.9495 16.1374C47.9081 16.149 47.8686 16.164 47.8302 16.1807L43.5676 15.2013V15.1409ZM56.0975 21.1162C55.9653 21.6914 55.3907 22.052 54.8146 21.9197L43.5082 19.3219C43.547 19.131 43.5675 18.9335 43.5675 18.7313V17.139L55.2939 19.8333C55.8623 19.9639 56.2281 20.5473 56.0975 21.1162Z" fill="white"/>
<path d="M36.5789 38.8158C37.9328 38.8158 39.0345 37.7143 39.0345 36.3603V34.8493C39.0345 31.3158 36.3989 28.3866 32.9902 27.9243V26.2867C32.9902 24.9328 31.8887 23.8312 30.5347 23.8312C29.1808 23.8312 28.0792 24.9327 28.0792 26.2867V28.0493C24.5795 28.8299 22.0349 31.9411 22.0349 35.6048C22.0349 39.875 25.5089 43.349 29.7791 43.349H31.2901C32.8522 43.349 34.1233 44.6199 34.1233 46.1822C34.1233 47.7446 32.8523 49.0155 31.2901 49.0155H29.0234C27.8777 49.0155 26.9457 48.0834 26.9457 46.9377C26.9457 45.5839 25.8442 44.4822 24.4902 44.4822C23.1363 44.4822 22.0347 45.5837 22.0347 46.9377C22.0347 50.4712 24.6702 53.4005 28.0789 53.8627V55.5004C28.0789 56.8543 29.1804 57.9559 30.5344 57.9559C31.8883 57.9559 32.9899 56.8544 32.9899 55.5004V53.7377C36.4896 52.9571 39.0342 49.846 39.0342 46.1822C39.0342 41.9121 35.5602 38.4381 31.2901 38.4381H29.7791C28.2169 38.4381 26.9458 37.1672 26.9458 35.6048C26.9458 34.0425 28.2168 32.7716 29.7791 32.7716H32.0457C33.1914 32.7716 34.1234 33.7037 34.1234 34.8493V36.3603C34.1234 37.7142 35.2251 38.8158 36.5789 38.8158ZM32.0458 30.8828H29.7792C27.1754 30.8828 25.0572 33.0011 25.0572 35.6048C25.0572 38.2086 27.1754 40.3268 29.7792 40.3268H31.2902C34.5189 40.3268 37.1456 42.9536 37.1456 46.1822C37.1456 49.1696 34.9082 51.6707 31.9416 52.0004C31.4633 52.0535 31.1014 52.4577 31.1014 52.939V55.5004C31.1014 55.8128 30.8472 56.067 30.5348 56.067C30.2224 56.067 29.9682 55.8128 29.9682 55.5004V52.982C29.9682 52.4604 29.5454 52.0376 29.0238 52.0376C26.2117 52.0376 23.924 49.7499 23.924 46.9379C23.924 46.6255 24.1783 46.3712 24.4907 46.3712C24.803 46.3712 25.0573 46.6255 25.0573 46.9379C25.0573 49.125 26.8367 50.9044 29.0238 50.9044H31.2904C33.8942 50.9044 36.0124 48.7861 36.0124 46.1824C36.0124 43.5786 33.8942 41.4603 31.2904 41.4603H29.7794C26.5507 41.4603 23.924 38.8336 23.924 35.605C23.924 32.6176 26.1614 30.1164 29.1281 29.7868C29.6063 29.7337 29.9682 29.3294 29.9682 28.8482V26.2868C29.9682 25.9744 30.2224 25.7202 30.5348 25.7202C30.8472 25.7202 31.1014 25.9744 31.1014 26.2868V28.8052C31.1014 29.3268 31.5242 29.7496 32.0458 29.7496C34.8579 29.7496 37.1456 32.0373 37.1456 34.8493V36.3603C37.1456 36.6727 36.8913 36.927 36.5789 36.927C36.2666 36.927 36.0123 36.6727 36.0123 36.3603V34.8493C36.0123 32.6622 34.2329 30.8828 32.0458 30.8828Z" fill="white"/>
</g>
<defs>
<clipPath id="clip0">
<rect width="64" height="64" fill="white"/>
</clipPath>
</defs>
</svg>
