<?xml version="1.0" encoding="UTF-8"?>
<!DOCTYPE svg PUBLIC "-//W3C//DTD SVG 1.1//EN" "http://www.w3.org/Graphics/SVG/1.1/DTD/svg11.dtd">
<!-- Creator: CorelDRAW X6 -->
<svg xmlns="http://www.w3.org/2000/svg" xml:space="preserve" width="10.8439mm" height="10.3186mm" version="1.1" style="shape-rendering:geometricPrecision; text-rendering:geometricPrecision; image-rendering:optimizeQuality; fill-rule:evenodd; clip-rule:evenodd"
viewBox="0 0 1075 1023"
 xmlns:xlink="http://www.w3.org/1999/xlink">
 <defs>
  <style type="text/css">
   <![CDATA[
    .fil0 {fill:#498DC6}
    .fil1 {fill:#F4B213}
   ]]>
  </style>
 </defs>
 <g id="Слой_x0020_1">
  <metadata id="CorelCorpID_0Corel-Layer"/>
  <path class="fil0" d="M1074 389c-2,-8 -8,-13 -16,-15l-326 -77 -175 -286c-8,-15 -30,-15 -39,0l-174 285 -326 77c-8,2 -13,8 -16,15 -1,2 -1,4 -1,6l0 2c0,5 2,10 6,13l219 255 -26 334c-1,8 3,16 9,20 6,5 15,6 22,2l308 -129 309 129c3,1 6,2 9,2 5,0 10,-2 14,-5 7,-5 10,-12 9,-20l-26 -334 218 -255c5,-6 6,-14 3,-20zm-263 254c-4,5 -6,11 -6,17l24 305 -283 -118c-3,-2 -6,-2 -9,-2 -3,0 -6,1 -9,2l-283 118 24 -305c0,-6 -2,-12 -6,-17l-198 -233 299 -70c6,-2 11,-5 15,-10l159 -262 160 262c3,5 8,9 14,10l299 70 -200 233z"/>
  <path class="fil1" d="M271 497l-23 -27c-19,-23 -54,5 -36,29l23 27c4,5 11,8 17,8 5,0 11,-2 15,-6 10,-7 12,-22 3,-31l0 0zm42 48c-20,-22 -53,7 -34,30l7 8c26,30 39,70 35,110l-6 72c-1,13 8,24 21,25l2 0c12,0 21,-9 23,-21l6 -72c4,-52 -13,-103 -47,-143l-7 -9z"/>
 </g>
</svg>
