<?xml version="1.0" encoding="UTF-8"?>
<!DOCTYPE svg PUBLIC "-//W3C//DTD SVG 1.1//EN" "http://www.w3.org/Graphics/SVG/1.1/DTD/svg11.dtd">
<!-- Creator: CorelDRAW X6 -->
<svg xmlns="http://www.w3.org/2000/svg" xml:space="preserve" width="12.4356mm" height="10.583mm" version="1.1" style="shape-rendering:geometricPrecision; text-rendering:geometricPrecision; image-rendering:optimizeQuality; fill-rule:evenodd; clip-rule:evenodd"
viewBox="0 0 1218 1036"
 xmlns:xlink="http://www.w3.org/1999/xlink">
 <defs>
  <style type="text/css">
   <![CDATA[
    .fil0 {fill:#498DC6}
    .fil1 {fill:#F4B213}
   ]]>
  </style>
 </defs>
 <g id="Слой_x0020_1">
  <metadata id="CorelCorpID_0Corel-Layer"/>
  <path class="fil0" d="M621 995c-9,-9 -24,-9 -34,0 -9,9 -9,25 0,34 9,9 24,9 34,0 9,-9 9,-24 0,-34l0 0zm525 -736l-56 0c-32,0 -32,48 0,48l56 0c13,0 24,11 24,24l0 77c0,13 -11,24 -24,24l-1075 0c-13,0 -24,-11 -24,-24l0 -77c0,-13 11,-24 24,-24l48 0c32,0 32,-48 0,-48l-48 0c-40,0 -71,32 -71,72l0 77c0,34 23,63 56,70l85 445c12,65 69,113 136,113l220 0c32,0 32,-48 0,-48l-220 0c-44,0 -81,-31 -89,-74l-83 -434 1008 0 -83 434c-8,43 -46,74 -89,74l-236 0c-32,0 -32,48 0,48l236 0c66,0 124,-48 136,-113l85 -445c33,-7 56,-37 56,-70l0 -77c0,-40 -32,-72 -71,-72l0 0zm-144 6l-240 -243c-29,-29 -77,-29 -106,0 -29,30 -29,77 0,107l129 130 -353 0 129 -130c29,-30 29,-77 0,-107 -29,-29 -77,-29 -106,0l-240 243c-29,29 -29,77 0,106 29,29 77,29 106,0l64 -64 444 0c1,0 2,0 4,0l64 65c29,29 77,29 106,0 29,-30 29,-77 0,-106l0 0zm-715 72c-10,11 -28,11 -38,0 -11,-11 -11,-28 0,-39l241 -243c11,-11 28,-11 38,0 11,11 11,28 0,39l-240 243zm681 0c-11,11 -28,11 -38,0l-241 -243c-11,-11 -11,-28 0,-39 11,-11 28,-11 38,0l241 243c11,11 11,28 0,39l0 0z"/>
  <path class="fil1" d="M370 868l-49 -277c-6,-31 -52,-23 -47,8l49 278c2,11 12,20 23,20 1,0 3,0 4,0 13,-2 22,-15 19,-28zm334 -203c-13,0 -24,11 -24,24l0 184c0,32 48,32 48,0l0 -184c0,-13 -11,-24 -24,-24l0 0zm17 -87c-9,-9 -24,-9 -34,0 -9,9 -9,25 0,34 9,9 24,9 34,0 9,-9 9,-25 0,-34l0 0zm-208 -7c-13,0 -24,11 -24,24l0 277c0,32 48,32 48,0l0 -277c0,-13 -11,-24 -24,-24l0 0zm411 0c-13,-2 -25,6 -28,19l-49 277c-2,13 6,25 19,28 1,0 3,0 4,0 12,0 21,-8 23,-20l49 -278c2,-13 -6,-25 -19,-28l0 0z"/>
 </g>
</svg>
