<?xml version="1.0" encoding="UTF-8"?>
<!DOCTYPE svg PUBLIC "-//W3C//DTD SVG 1.1//EN" "http://www.w3.org/Graphics/SVG/1.1/DTD/svg11.dtd">
<!-- Creator: CorelDRAW X7 -->
<svg xmlns="http://www.w3.org/2000/svg" xml:space="preserve" width="650px" height="650px" version="1.1" style="shape-rendering:geometricPrecision; text-rendering:geometricPrecision; image-rendering:optimizeQuality; fill-rule:evenodd; clip-rule:evenodd"
viewBox="0 0 650 650"
 xmlns:xlink="http://www.w3.org/1999/xlink">
 <defs>
  <style type="text/css">
   <![CDATA[
    .fil3 {fill:#FEFEFE}
    .fil0 {fill:black}
    .fil2 {fill:white}
    .fil1 {fill:white;fill-rule:nonzero}
   ]]>
  </style>
   <mask id="id0">
  <linearGradient id="id1" gradientUnits="userSpaceOnUse" x1="263.589" y1="272.164" x2="507.845" y2="527.541">
   <stop offset="0" style="stop-opacity:0.25098; stop-color:white"/>
   <stop offset="1" style="stop-opacity:0; stop-color:white"/>
  </linearGradient>
    <rect style="fill:url(#id1)" x="145" y="158" width="482" height="484"/>
   </mask>
 </defs>
 <g id="Слой_x0020_1">
  <metadata id="CorelCorpID_0Corel-Layer"/>
  <polygon class="fil0" style="mask:url(#id0)" points="146,261 175,254 189,218 285,314 291,326 302,332 312,281 292,261 340,243 366,159 625,418 431,641 274,484 278,459 271,465 146,340 211,326 "/>
  <polygon class="fil1" points="317,278 317,388 354,388 280,490 206,388 243,388 243,278 "/>
  <polygon class="fil1" points="329,371 329,261 292,261 366,159 440,261 403,261 403,371 "/>
  <polygon class="fil2" points="146,340 214,340 214,323 146,323 "/>
  <polygon class="fil3" points="146,261 171,261 171,287 189,287 189,261 214,261 214,243 189,243 189,218 171,218 171,243 146,243 "/>
 </g>
</svg>
