<svg xmlns="http://www.w3.org/2000/svg" width="40.969" height="39" viewBox="0 0 40.969 39">
  <defs>
    <style>
      .cls-1 {
        fill: #488dc6;
        fill-rule: evenodd;
      }
    </style>
  </defs>
  <path id="_7.svg" data-name="7.svg" class="cls-1" d="M657.928,72.815a0.8,0.8,0,0,0-.611-0.566l-12.437-2.92L638.2,58.435a0.85,0.85,0,0,0-1.484,0l-6.633,10.851L617.65,72.205a0.891,0.891,0,0,0-.611.567,0.813,0.813,0,0,0,.175.828l8.335,9.717-1,12.724a0.894,0.894,0,0,0,.349.784,0.819,0.819,0,0,0,.829.087l11.739-4.924,11.782,4.924a0.821,0.821,0,0,0,.349.087,0.84,0.84,0,0,0,.524-0.175,0.8,0.8,0,0,0,.349-0.784l-1-12.724L657.8,73.6A0.823,0.823,0,0,0,657.928,72.815ZM647.891,82.49a1.068,1.068,0,0,0-.218.654l0.916,11.635L637.811,90.29a0.825,0.825,0,0,0-.349-0.087,1.034,1.034,0,0,0-.349.087l-10.779,4.488,0.917-11.635a0.914,0.914,0,0,0-.219-0.654l-7.549-8.89,11.39-2.658a1.039,1.039,0,0,0,.567-0.392l6.065-9.979,6.11,9.979a0.778,0.778,0,0,0,.523.392l11.39,2.658Zm-20.553-5.534-0.873-1.046A0.869,0.869,0,0,0,625.112,77l0.873,1.046a0.844,0.844,0,0,0,.655.3,0.92,0.92,0,0,0,.567-0.218A0.792,0.792,0,0,0,627.338,76.955Zm1.614,1.83a0.866,0.866,0,0,0-1.309,1.133l0.262,0.305a5.65,5.65,0,0,1,1.353,4.183l-0.218,2.746a0.879,0.879,0,0,0,.785.959h0.087a0.892,0.892,0,0,0,.873-0.784L631,84.581a7.63,7.63,0,0,0-1.789-5.447Z" transform="translate(-617 -58)"/>
</svg>
