<?xml version="1.0" encoding="UTF-8"?>
<!DOCTYPE svg PUBLIC "-//W3C//DTD SVG 1.1//EN" "http://www.w3.org/Graphics/SVG/1.1/DTD/svg11.dtd">
<!-- Creator: CorelDRAW X6 -->
<svg xmlns="http://www.w3.org/2000/svg" xml:space="preserve" width="12.1695mm" height="8.7297mm" version="1.1" style="shape-rendering:geometricPrecision; text-rendering:geometricPrecision; image-rendering:optimizeQuality; fill-rule:evenodd; clip-rule:evenodd"
viewBox="0 0 1199 860"
 xmlns:xlink="http://www.w3.org/1999/xlink">
 <defs>
  <style type="text/css">
   <![CDATA[
    .fil0 {fill:#498DC6}
    .fil1 {fill:#F4B213}
   ]]>
  </style>
 </defs>
 <g id="Слой_x0020_1">
  <metadata id="CorelCorpID_0Corel-Layer"/>
  <path class="fil0" d="M1176 72l-79 0 -21 25 22 22 56 0 -1 682c-135,-55 -282,-75 -427,-57l-125 32 -128 -32c-145,-18 -291,2 -426,57l0 -682 55 0 27 -35 -27 -12 -78 0c-13,0 -23,10 -23,23l0 742c0,18 19,29 35,20 2,-1 235,-128 559,-46l6 0c2,0 4,0 6,0 326,-83 558,44 559,46 15,9 35,-2 35,-20l0 -743c0,-13 -10,-23 -23,-23z"/>
  <path class="fil1" d="M1097 72l0 0 0 -27c0,-11 -7,-20 -17,-23 -55,-14 -111,-21 -168,-21 -93,0 -220,21 -313,116 -93,-96 -221,-116 -313,-116 -57,0 -113,7 -168,21 -10,3 -17,12 -17,23l0 27 0 47 1 0 0 548 0 35c0,13 10,23 23,23 1,0 3,0 4,0 48,-7 97,-11 145,-12 67,-1 134,9 199,30 44,17 88,34 111,66l0 0c3,1 7,2 10,2l6 0c2,0 4,0 6,0 4,-1 8,-2 13,-3l0 0c29,-29 65,-50 108,-65 64,-21 132,-31 200,-30 49,0 98,4 146,11 13,2 25,-7 26,-20 0,-1 0,-2 0,-4l0 -561 -1 -68zm-823 595c-42,0 -85,3 -127,8l0 -612c45,-10 92,-15 138,-15 87,0 207,20 290,114l1 579c-48,-32 -143,-74 -302,-74zm349 -505c83,-93 203,-114 290,-114 46,0 93,5 138,15l0 612c-42,-5 -84,-8 -126,-8 -159,0 -253,42 -302,74l0 -579 0 0z"/>
 </g>
</svg>
