<?xml version="1.0" encoding="UTF-8"?>
<!DOCTYPE svg PUBLIC "-//W3C//DTD SVG 1.1//EN" "http://www.w3.org/Graphics/SVG/1.1/DTD/svg11.dtd">
<!-- Creator: CorelDRAW X6 -->
<svg xmlns="http://www.w3.org/2000/svg" xml:space="preserve" width="12.9647mm" height="8.4661mm" version="1.1" style="shape-rendering:geometricPrecision; text-rendering:geometricPrecision; image-rendering:optimizeQuality; fill-rule:evenodd; clip-rule:evenodd"
viewBox="0 0 1288 841"
 xmlns:xlink="http://www.w3.org/1999/xlink">
 <defs>
  <style type="text/css">
   <![CDATA[
    .fil0 {fill:#498DC6}
    .fil1 {fill:#F4B213}
   ]]>
  </style>
 </defs>
 <g id="Слой_x0020_1">
  <metadata id="CorelCorpID_0Corel-Layer"/>
  <path class="fil0" d="M642 49l-39 -19c-20,-9 -42,-13 -63,-13 -20,0 -40,3 -58,10l-66 28c-29,10 -61,10 -90,0l-67 -28c-12,-5 -25,-7 -38,-7 -15,0 -29,3 -43,8 -14,5 -26,14 -36,25l-121 134c-13,14 -19,32 -20,50l0 4c1,21 10,42 28,57l113 95 30 -1 0 -30 -115 -97c-15,-13 -17,-35 -3,-50l121 -134c6,-6 13,-11 20,-13 8,-3 17,-5 27,-5 7,0 14,1 21,4l66 28c40,15 84,15 125,0l66 -28c13,-5 27,-7 41,-7 15,0 30,2 44,8l18 9 32 -3 8 -25zm-68 712l64 59c33,30 83,28 113,-4l10 -11c9,-9 15,-20 18,-32l25 23c33,30 83,28 113,-4l10 -11c11,-12 18,-27 20,-44 28,8 59,-1 79,-22l10 -11c14,-15 21,-34 21,-54 0,-6 -1,-12 -2,-18 18,-2 35,-11 48,-24l10 -11c30,-32 28,-82 -4,-112l-19 -18 -59 5 49 45c7,7 12,16 11,26l0 0c0,9 -3,18 -10,25l-10 11c-14,14 -37,15 -52,2l-172 -158 -30 31 185 169c15,13 16,36 2,51l-10 11c-14,14 -37,15 -51,2l-172 -158 -30 31 153 140c14,14 15,36 2,50l-10 11c-14,14 -37,15 -52,2l-153 -140 -30 32 1 1 77 70c14,14 14,35 1,49l-10 11c-14,14 -37,15 -51,2l-67 -61 -31 2 3 32z"/>
  <path class="fil1" d="M1288 217c0,-20 -6,-39 -18,-55l-102 -129c-17,-21 -42,-33 -69,-32 -16,0 -32,4 -45,13l-100 61c-14,8 -30,11 -46,11 -12,0 -24,-2 -35,-7l-97 -47c-16,-7 -33,-11 -51,-11 -25,0 -50,7 -71,20l-6 4 -6 4 0 0 -49 34 0 0 -59 41c-36,25 -44,75 -18,110l9 12c17,21 43,34 70,34 15,0 31,-4 44,-12l40 -24c10,-5 22,-8 34,-8 14,0 28,4 40,11l112 80c31,22 60,46 88,71l85 78c14,9 27,21 55,-9l173 -190c15,-17 23,-38 23,-61zm-686 510c16,-31 10,-69 -16,-93l-11 -10c-15,-14 -35,-22 -55,-22 -2,0 -3,0 -5,0 0,0 0,-1 0,-1 -4,-21 -13,-40 -25,-57l-11 -10c-11,-11 -25,-18 -40,-20 11,-29 3,-62 -20,-84l-11 -10c-15,-14 -35,-22 -55,-22 -2,0 -5,1 -7,1 -1,-21 -9,-41 -25,-55l-11 -10c-32,-30 -83,-29 -113,3l-15 15 0 0 -1 1 -10 10 0 0 -30 31 0 0 -6 6 -2 2 0 0 -45 47c-31,31 -29,82 3,112l11 10c10,9 22,16 35,19 -18,31 -11,71 15,95l11 10c15,14 35,22 55,22 11,0 22,-2 31,-6 4,15 11,28 22,38l11 10c27,25 69,29 100,8 4,13 11,25 21,34l11 10c32,30 83,29 113,-3l47 -49 28 -34zm-445 -177c-9,0 -18,-3 -25,-10l-11 -10c-15,-14 -15,-36 -1,-51l110 -113c14,-14 37,-15 52,-1l11 10c5,8 9,17 11,26 0,7 -2,14 -6,20l-118 122c-6,4 -14,7 -21,7zm87 113c-14,14 -37,15 -52,1l-11 -10c-15,-14 -15,-37 -1,-51 0,0 146,-151 147,-152 14,-13 36,-14 50,0l11 10c15,14 15,37 1,51l-146 151zm120 64c-14,14 -37,15 -52,1l-11 -10c-14,-13 -15,-34 -3,-48l102 -105c14,-13 36,-12 50,1l11 10c15,14 15,36 1,51l-98 101zm193 -11l-62 64c-14,14 -37,15 -52,1l-11 -10c-14,-14 -15,-37 -1,-51l62 -64c14,-14 37,-15 52,-1l11 10c14,14 15,37 1,51zm676 -467l-173 189 -78 -72c-29,-26 -60,-51 -92,-74l-112 -80c-19,-13 -42,-20 -65,-19 -20,0 -39,5 -56,14l-40 24c-6,4 -14,6 -21,6 -13,0 -26,-6 -35,-17l-9 -12c-12,-16 -8,-38 8,-49l120 -83c14,-9 30,-13 46,-13 11,0 22,2 32,6l97 47c17,8 36,12 54,11 24,0 48,-6 69,-18l100 -61c7,-4 14,-6 22,-6 13,0 26,6 34,16l102 129c6,8 9,18 9,29 0,12 -4,23 -11,32z"/>
 </g>
</svg>
