<svg xmlns="http://www.w3.org/2000/svg" width="47" height="40" viewBox="0 0 47 40">
  <defs>
    <style>
      .cls-1 {
        fill: #498dc6;
        fill-rule: evenodd;
      }
    </style>
  </defs>
  <path id="_2.svg" data-name="2.svg" class="cls-1" d="M152.281,92.5l-1.9-10.71a0.918,0.918,0,1,0-1.807.326l1.9,10.71a0.922,0.922,0,0,0,.9.763,0.9,0.9,0,0,0,.162-0.014A0.925,0.925,0,0,0,152.281,92.5Zm12.909-7.853a0.922,0.922,0,0,0-.918.926v7.09a0.918,0.918,0,1,0,1.836,0v-7.09A0.922,0.922,0,0,0,165.19,84.651Zm0.649-3.349a0.912,0.912,0,0,0-1.3,0,0.931,0.931,0,0,0,0,1.309,0.912,0.912,0,0,0,1.3,0A0.931,0.931,0,0,0,165.839,81.3Zm-8.03-.271a0.923,0.923,0,0,0-.918.926v10.71a0.918,0.918,0,1,0,1.836,0V81.957A0.922,0.922,0,0,0,157.809,81.031Zm15.873,0.014a0.917,0.917,0,0,0-1.065.748l-1.9,10.71a0.925,0.925,0,0,0,.742,1.074,0.906,0.906,0,0,0,.163.015,0.922,0.922,0,0,0,.9-0.763l1.9-10.71A0.926,0.926,0,0,0,173.682,81.045Zm-11.71,16.373a0.912,0.912,0,0,0-1.3,0,0.931,0.931,0,0,0,0,1.31,0.912,0.912,0,0,0,1.3,0A0.931,0.931,0,0,0,161.972,97.419Zm20.274-28.426h-2.173a0.926,0.926,0,0,0,0,1.852h2.173a0.923,0.923,0,0,1,.918.926v2.964a0.923,0.923,0,0,1-.918.926H140.754a0.923,0.923,0,0,1-.918-0.926V71.771a0.923,0.923,0,0,1,.918-0.926h1.866a0.926,0.926,0,0,0,0-1.852h-1.866A2.769,2.769,0,0,0,138,71.771v2.964a2.777,2.777,0,0,0,2.167,2.714l3.289,17.18A5.365,5.365,0,0,0,148.7,99h8.481a0.926,0.926,0,0,0,0-1.852H148.7a3.524,3.524,0,0,1-3.446-2.869L142.05,77.514h38.9l-3.209,16.764a3.522,3.522,0,0,1-3.445,2.869H165.19a0.926,0.926,0,0,0,0,1.852H174.3a5.365,5.365,0,0,0,5.248-4.37l3.289-17.18A2.777,2.777,0,0,0,185,74.735V71.771A2.77,2.77,0,0,0,182.246,68.993Zm-5.562.224L167.4,59.849a2.867,2.867,0,0,0-4.075,0,2.929,2.929,0,0,0,0,4.111l4.989,5.033H154.687l4.988-5.033a2.927,2.927,0,0,0,0-4.111,2.867,2.867,0,0,0-4.075,0l-9.284,9.367a2.927,2.927,0,0,0,0,4.111,2.864,2.864,0,0,0,4.075,0l2.46-2.483H170a0.934,0.934,0,0,0,.134-0.011l2.471,2.493a2.864,2.864,0,0,0,4.075,0A2.929,2.929,0,0,0,176.684,69.217Zm-27.592,2.8a1.038,1.038,0,0,1-1.478,0,1.062,1.062,0,0,1,0-1.492l9.285-9.367a1.04,1.04,0,0,1,1.478,0,1.062,1.062,0,0,1,0,1.492Zm26.294,0a1.04,1.04,0,0,1-1.479,0l-9.285-9.367a1.064,1.064,0,0,1,0-1.492,1.041,1.041,0,0,1,1.479,0l9.285,9.367A1.063,1.063,0,0,1,175.386,72.018Z" transform="translate(-138 -59)"/>
</svg>
