<svg width="60" height="65" viewBox="0 0 60 65" fill="none" xmlns="http://www.w3.org/2000/svg">
<path d="M54.7075 28.6017V64.5079H19.0681L54.7075 28.6017Z" fill="#488DC6"/>
<path d="M19.3815 43.441H16.4598V64.5082H19.3815V43.441Z" fill="#1E2327"/>
<path d="M31.5297 39.9042H28.608V64.5082H31.5297V39.9042Z" fill="#1E2327"/>
<path d="M7.23326 56.6657H4.46531V64.5082H7.23326V56.6657Z" fill="#1E2327"/>
<path d="M43.5244 30.9852H40.6026V64.5082H43.5244V30.9852Z" fill="#1E2327"/>
<path d="M55.5188 22.9889H52.7509V64.5082H55.5188V22.9889Z" fill="#1E2327"/>
<path d="M59.5016 0.952943C59.194 0.691525 58.8096 0.53775 58.3944 0.53775H47.8608C47.015 0.53775 46.3231 1.22974 46.3231 2.0755C46.3231 2.92127 47.015 3.61325 47.8608 3.61325L54.6577 3.59788L38.0346 20.2364L32.2065 14.3775C31.9143 14.0853 31.5299 13.9162 31.1147 13.9008C30.6995 13.9162 30.3151 14.0853 30.0229 14.3775L0.498057 43.9331C-0.117044 44.5175 -0.132421 45.5016 0.451924 46.1167C1.03627 46.7318 2.02043 46.7472 2.63553 46.1628C2.65091 46.1475 2.66629 46.1321 2.68166 46.1321L31.1301 17.6837L36.9582 23.4964C37.2503 23.7732 37.6348 23.927 38.05 23.927C38.4498 23.927 38.8496 23.7732 39.1418 23.4964L56.8719 5.76611L56.8565 12.5476C56.8565 13.3934 57.5331 14.07 58.3789 14.07H58.3943C59.24 14.0853 59.9166 13.4087 59.932 12.563C59.932 12.563 59.932 12.563 59.932 12.5476L59.9474 2.02937C59.9475 1.62955 59.7784 1.24512 59.5016 0.952943Z" fill="#1E2327"/>
</svg>
