<svg width="64" height="65" viewBox="0 0 64 65" fill="none" xmlns="http://www.w3.org/2000/svg">
<path d="M23.0958 31.6003L14.3306 40.3655V58.3572H23.0958V31.6003Z" fill="#488DC6"/>
<path d="M45.3163 58.3572V31.6003H54.5428V58.3572H45.3163Z" fill="#488DC6"/>
<path d="M62.7506 57.2895H55.4261V31.1717C55.4261 30.48 54.8667 29.9193 54.1766 29.9193H45.1795C44.4895 29.9193 43.9301 30.48 43.9301 31.1717V57.2896H39.6813V40.2541C39.6813 39.5624 39.122 39.0017 38.4319 39.0017H29.4348C28.7448 39.0017 28.1854 39.5624 28.1854 40.2541V57.2896H24.353V25.3215C24.353 24.6298 23.7937 24.0691 23.1036 24.0691H14.1066C13.4166 24.0691 12.8572 24.6298 12.8572 25.3215V57.2895H7.85852V18.9349C7.85852 18.2432 7.29916 17.6825 6.6091 17.6825C5.91904 17.6825 5.35968 18.2432 5.35968 18.9349V57.2896H1.27893C0.588877 57.2896 0.0295105 57.8503 0.0295105 58.542C0.0295105 59.2337 0.588877 59.7945 1.27893 59.7945H5.35968V63.4096C5.35968 64.1013 5.91904 64.662 6.6091 64.662C7.29916 64.662 7.85852 64.1013 7.85852 63.4096V59.7943H62.7506C63.4406 59.7943 64 59.2336 64 58.5419C64 57.8502 63.4406 57.2895 62.7506 57.2895ZM15.3561 57.2895V26.5739H21.8542V57.2895H15.3561ZM30.6844 57.2895V41.5064H37.1826V57.2895H30.6844ZM46.429 57.2895V32.4242H52.9272V57.2896H46.429V57.2895Z" fill="#1E2327"/>
<path d="M6.60913 9.23736C7.29919 9.23736 7.85856 8.67665 7.85856 7.98493V1.79018C7.85856 1.09846 7.29919 0.53775 6.60913 0.53775C5.91908 0.53775 5.35971 1.09846 5.35971 1.79018V7.98493C5.35971 8.67665 5.91908 9.23736 6.60913 9.23736Z" fill="#1E2327"/>
<path d="M59.682 0.53775H31.6704C29.2894 0.53775 27.3524 2.47939 27.3524 4.86614V22.2944C27.3524 24.681 29.2894 26.6228 31.6704 26.6228H32.684V31.9737C32.684 33.049 34.0156 33.6264 34.796 32.8797L41.3358 26.6228H48.7435C49.4336 26.6228 49.993 26.0621 49.993 25.3704C49.993 24.6787 49.4336 24.1179 48.7435 24.1179H40.8353C40.5141 24.1179 40.2051 24.2421 39.9727 24.4644L35.1828 29.047V25.3704C35.1828 24.6787 34.6234 24.1179 33.9334 24.1179H31.6704C30.6674 24.1179 29.8513 23.3 29.8513 22.2944V4.86614C29.8513 3.86069 30.6674 3.0426 31.6704 3.0426H59.682C60.685 3.0426 61.5011 3.86069 61.5011 4.86614V22.2944C61.5011 23.2823 60.6994 24.0999 59.714 24.1167C59.024 24.1285 58.4743 24.6987 58.486 25.3903C58.4978 26.0819 59.063 26.6332 59.7566 26.6212C62.0964 26.5811 63.9999 24.6401 63.9999 22.2944V4.86614C64 2.47939 62.063 0.53775 59.682 0.53775V0.53775Z" fill="#1E2327"/>
<path d="M5.45578 13.836C5.71391 14.4679 6.45982 14.7741 7.08753 14.5136C7.71574 14.253 8.02347 13.5072 7.76222 12.8779C7.50059 12.2477 6.76143 11.9397 6.13172 12.2004C5.50364 12.4604 5.19403 13.2068 5.45578 13.836V13.836Z" fill="#1E2327"/>
<path d="M41.1937 12.105C40.9065 12.105 40.628 12.2042 40.4052 12.386L34.2593 17.3984C33.7241 17.8349 33.6431 18.6238 34.0786 19.1603C34.3257 19.4647 34.6855 19.6224 35.0486 19.6224C35.3257 19.6224 35.6047 19.5304 35.8363 19.3413L41.6379 14.6098H49.8716C50.1702 14.6098 50.459 14.5026 50.6855 14.3076L55.1512 10.4644V11.495C55.1512 12.1867 55.7105 12.7474 56.4006 12.7474C57.0907 12.7474 57.65 12.1867 57.65 11.495V7.45427C57.65 6.76255 57.0907 6.20184 56.4006 6.20184H52.1422C51.4521 6.20184 50.8928 6.76255 50.8928 7.45427C50.8928 8.14599 51.4521 8.7067 52.1422 8.7067H53.3576L49.4088 12.105H41.1937Z" fill="#1E2327"/>
<path d="M55.4252 24.8424C54.996 23.8096 53.4743 23.8419 53.0955 24.8993C52.916 25.4006 53.0828 25.9822 53.5029 26.3087C53.9099 26.6249 54.4784 26.6585 54.9188 26.392C55.4393 26.0771 55.6592 25.4052 55.4252 24.8424V24.8424Z" fill="#1E2327"/>
</svg>
