<svg width="68" height="65" viewBox="0 0 68 65" fill="none" xmlns="http://www.w3.org/2000/svg">
<path d="M36.8935 55.8204L59.3447 33.3692L57.9607 28.2946L54.6546 24.3734L49.1955 20.7596L43.1983 19.2219H36.3553L30.8963 21.6823L26.5137 25.7573L23.8995 30.063L22.1311 36.3678L23.0538 43.057L25.9755 48.9774L30.8963 53.6675L36.586 56.1279L36.8935 55.8204Z" fill="#488DC6"/>
<path d="M2.06344 44.441C1.71967 44.441 1.38244 44.5809 1.13932 44.824C0.896206 45.0671 0.756348 45.4043 0.756348 45.7481C0.756348 46.0932 0.896075 46.4291 1.13932 46.6722C1.38257 46.9153 1.71967 47.0552 2.06344 47.0552C2.4072 47.0552 2.74443 46.9153 2.98742 46.6722C3.23054 46.4291 3.37053 46.0919 3.37053 45.7481C3.37053 45.4043 3.23067 45.0671 2.98742 44.824C2.74443 44.5809 2.4072 44.441 2.06344 44.441Z" fill="#1E2327"/>
<path d="M67.3661 35.1477C66.7669 29.1148 64.0742 23.4273 59.7839 19.1328C56.1174 15.4629 51.6296 13.1046 46.9076 12.056V8.74087C48.8362 8.26059 50.2698 6.51315 50.2698 4.43613C50.2698 1.99 48.2817 0 45.8379 0H36.4527C34.0089 0 32.0208 1.99 32.0208 4.43613C32.0208 6.51302 33.4544 8.26046 35.3829 8.74087V12.0652C30.6753 13.1183 26.2024 15.4734 22.5464 19.1329C21.7463 19.9337 21.0085 20.7739 20.3332 21.647C20.3004 21.6445 20.2677 21.6421 20.2344 21.6421H10.9455C10.2257 21.6421 9.64195 22.2262 9.64195 22.9468C9.64195 23.6674 10.2257 24.2515 10.9455 24.2515H18.5595C17.6038 25.8531 16.8331 27.5351 16.2465 29.2665H2.05985C1.34006 29.2665 0.756348 29.8506 0.756348 30.5712C0.756348 31.2918 1.34006 31.8759 2.05985 31.8759H15.5099C15.1343 33.5266 14.9187 35.2064 14.863 36.891H9.09878C8.37898 36.891 7.79527 37.4751 7.79527 38.1957C7.79527 38.9163 8.37898 39.5005 9.09878 39.5005H14.9046C15.0146 41.1893 15.2859 42.8693 15.7185 44.5155H7.27387C6.55407 44.5155 5.97037 45.0997 5.97037 45.8203C5.97037 46.5409 6.55407 47.125 7.27387 47.125H16.5504C17.8291 50.5109 19.8275 53.6845 22.5464 56.4059C26.8409 60.7045 32.5289 63.4004 38.5623 63.997C39.4234 64.0821 40.2851 64.1243 41.1457 64.1243C46.2322 64.1243 51.2541 62.6508 55.5153 59.8733C56.1185 59.48 56.2892 58.6717 55.8963 58.0679C55.5034 57.4641 54.6959 57.2933 54.0926 57.6865C44.7651 63.7662 32.2733 62.4517 24.3898 54.5607C15.1399 45.302 15.1399 30.2371 24.3898 20.9782C33.6396 11.7196 48.6902 11.7196 57.9403 20.9782C65.8133 28.8589 67.1338 41.3519 61.0799 50.6837C60.6878 51.2881 60.8595 52.0962 61.4632 52.4885C62.0672 52.881 62.8743 52.7092 63.2663 52.1048C66.5008 47.1187 67.9568 41.0967 67.3661 35.1477ZM34.6278 4.43626C34.6278 3.429 35.4464 2.60962 36.4527 2.60962H45.8379C46.8442 2.60962 47.6628 3.429 47.6628 4.43626C47.6628 5.44352 46.8442 6.2629 45.8379 6.2629H45.6041H36.6864H36.4527C35.4464 6.2629 34.6278 5.44339 34.6278 4.43626ZM37.9899 11.6167V8.87239H44.3006V11.612C42.205 11.3625 40.085 11.3641 37.9899 11.6167Z" fill="#1E2327"/>
<path d="M58.8065 54.1288C58.4614 54.1288 58.1255 54.2687 57.8825 54.5118C57.6381 54.7549 57.4994 55.0922 57.4994 55.4359C57.4994 55.7797 57.6381 56.1169 57.8825 56.36C58.1255 56.6045 58.4615 56.743 58.8065 56.743C59.1502 56.743 59.4862 56.6045 59.7306 56.36C59.9737 56.1169 60.1136 55.7797 60.1136 55.4359C60.1136 55.0922 59.9738 54.7549 59.7306 54.5118C59.4862 54.2687 59.1501 54.1288 58.8065 54.1288Z" fill="#1E2327"/>
<path d="M41.1992 17.5304C30.0916 17.5304 21.0547 26.6016 21.0547 37.7518C21.0547 48.902 30.0916 57.9732 41.1992 57.9732C52.3069 57.9732 61.3438 48.902 61.3438 37.7518C61.3438 26.6016 52.3069 17.5304 41.1992 17.5304ZM41.1992 55.3662C31.5235 55.3662 23.6518 47.4644 23.6518 37.7518C23.6518 28.0392 31.5235 20.1374 41.1992 20.1374C50.875 20.1374 58.7466 28.0392 58.7466 37.7518C58.7466 47.4644 50.875 55.3662 41.1992 55.3662Z" fill="#1E2327"/>
<path d="M49.4108 27.748L42.8967 34.1063C42.3519 33.8434 41.7392 33.6949 41.0915 33.6949C40.4436 33.6949 39.831 33.8434 39.2862 34.1063L36.3708 31.2606C35.8571 30.7593 35.0246 30.7593 34.5108 31.2606C33.9972 31.7619 33.9972 32.5748 34.5108 33.0761L37.4261 35.9218C37.1567 36.4535 37.0046 37.0517 37.0046 37.6839C37.0046 39.8835 38.8379 41.6731 41.0915 41.6731C43.345 41.6731 45.1783 39.8835 45.1783 37.6839C45.1783 37.0517 45.0261 36.4535 44.7568 35.9218L51.0797 29.75L51.2708 29.5635C51.7843 29.0621 51.7843 28.2493 51.2708 27.748C50.7572 27.2467 49.9247 27.2467 49.4108 27.748ZM41.0915 39.1057C40.2884 39.1057 39.635 38.4679 39.635 37.684C39.635 36.9002 40.2884 36.2624 41.0915 36.2624C41.8945 36.2624 42.5479 36.9002 42.5479 37.684C42.5479 38.4679 41.8945 39.1057 41.0915 39.1057Z" fill="#1E2327"/>
<path d="M55.1093 36.4447H53.8923C53.1669 36.4447 52.5786 37.0299 52.5786 37.7518C52.5786 38.4737 53.1669 39.0589 53.8923 39.0589H55.1093C55.8347 39.0589 56.423 38.4737 56.423 37.7518C56.423 37.0299 55.8347 36.4447 55.1093 36.4447Z" fill="#1E2327"/>
<path d="M28.5062 36.2909H27.2892C26.5638 36.2909 25.9755 36.8761 25.9755 37.598C25.9755 38.3199 26.5638 38.9051 27.2892 38.9051H28.5062C29.2316 38.9051 29.8199 38.3199 29.8199 37.598C29.8199 36.8761 29.2316 36.2909 28.5062 36.2909Z" fill="#1E2327"/>
<path d="M41.1223 26.2956C41.8441 26.2956 42.4294 25.7309 42.4294 25.0344V23.8661C42.4294 23.1696 41.8441 22.6049 41.1223 22.6049C40.4006 22.6049 39.8152 23.1696 39.8152 23.8661V25.0344C39.8152 25.7309 40.4006 26.2956 41.1223 26.2956Z" fill="#1E2327"/>
<path d="M41.1223 49.0543C40.4006 49.0543 39.8152 49.6424 39.8152 50.368V51.585C39.8152 52.3105 40.4006 52.8987 41.1223 52.8987C41.8441 52.8987 42.4294 52.3105 42.4294 51.585V50.368C42.4294 49.6424 41.8441 49.0543 41.1223 49.0543Z" fill="#1E2327"/>
</svg>
