<?xml version="1.0" encoding="UTF-8"?>
<!DOCTYPE svg PUBLIC "-//W3C//DTD SVG 1.1//EN" "http://www.w3.org/Graphics/SVG/1.1/DTD/svg11.dtd">
<!-- Creator: CorelDRAW X7 -->
<svg xmlns="http://www.w3.org/2000/svg" xml:space="preserve" width="553px" height="548px" version="1.1" style="shape-rendering:geometricPrecision; text-rendering:geometricPrecision; image-rendering:optimizeQuality; fill-rule:evenodd; clip-rule:evenodd"
viewBox="0 0 553 548"
 xmlns:xlink="http://www.w3.org/1999/xlink">
 <defs>
  <style type="text/css">
   <![CDATA[
    .fil1 {fill:#E9E9E9}
    .fil0 {fill:#F4B212}
   ]]>
  </style>
 </defs>
 <g id="Слой_x0020_1">
  <metadata id="CorelCorpID_0Corel-Layer"/>
  <path class="fil0" d="M277 1l0 0 0 91 0 0c-101,0 -183,82 -183,182 0,101 82,183 183,183 76,0 141,-47 168,-114l85 35c-41,100 -139,170 -253,170 -152,0 -274,-122 -274,-274 0,-151 122,-273 274,-273z"/>
  <path class="fil1" d="M277 25l23 -23c2,0 5,0 7,1l-30 30 0 -8zm248 351l9 -9c-1,3 -3,7 -4,11l0 0 -5 -2zm-27 -11l49 -49c0,3 -1,6 -2,10l-41 41 -6 -2zm13 5l31 -31c0,4 -1,7 -2,11l-23 23 -6 -3zm-83 -197l66 -65c1,1 2,3 3,4l-66 66c-1,-2 -2,-3 -3,-5zm30 120l84 -84c1,2 1,4 2,6l-87 87c0,-3 1,-6 1,-9zm14 61l78 -78c0,3 0,6 0,8l-72 73 -6 -3zm-26 -12l102 -102c0,3 1,5 1,7l-98 99 -6 -3 1 -1zm12 7l92 -92c0,3 0,5 0,8l-86 86 -6 -2zm27 11l64 -65c0,3 0,6 0,9l-58 58 -6 -2zm-27 -105l75 -75c1,2 2,4 2,6l-76 77c-1,-3 -1,-5 -1,-8zm1 18l79 -79c1,2 1,4 2,6l-81 81c0,-2 0,-4 0,-7 0,0 0,-1 0,-1zm-5 42l92 -91c0,2 0,5 1,7l-95 95c1,-4 2,-7 2,-11zm-2 -90l70 -71c1,2 2,4 3,6l-71 71c-1,-2 -1,-4 -2,-6zm-10 -28l67 -67c1,1 2,3 3,5l-68 67c-1,-1 -1,-3 -2,-5zm5 13l69 -69c1,2 2,4 3,6l-70 69c0,-2 -1,-4 -2,-6zm9 29l72 -72c1,2 2,4 3,6l-74 73c-1,-2 -1,-4 -1,-7zm-44 -87l64 -65c1,2 3,3 4,5l-65 64c-1,-1 -2,-3 -3,-4zm8 10l65 -65c1,2 2,3 4,5l-65 64c-2,-1 -3,-3 -4,-4zm15 23l66 -66c2,1 3,3 4,4l-67 67c-1,-2 -2,-4 -3,-5zm-89 -79l68 -68c1,1 3,2 5,3l-68 67c-2,-1 -3,-2 -5,-2zm47 28l64 -65c2,1 3,3 5,4l-65 64c-1,-1 -3,-2 -4,-3zm-22 -16l65 -66c2,1 3,3 5,4l-66 65c-1,-1 -3,-2 -4,-3zm11 7l65 -65c1,1 3,3 4,4l-65 65c-1,-1 -3,-3 -4,-4zm21 17l64 -64c1,1 3,3 4,4l-64 64c-2,-1 -3,-2 -4,-4zm-86 -45l72 -72c1,1 3,1 5,2l-71 71c-2,0 -4,-1 -6,-1zm15 3l69 -69c2,1 4,2 5,3l-68 68c-2,0 -4,-1 -6,-2zm26 11l67 -66c2,1 3,2 5,3l-66 66c-2,-1 -4,-2 -6,-3zm-73 -19l77 -77c2,0 4,1 6,2l-76 76c-2,-1 -5,-1 -7,-1zm-8 -30l55 -55c3,0 5,1 7,1l-62 62 0 -8zm0 19l70 -71c2,1 5,1 7,2l-77 77 0 -8zm25 13l74 -75c2,1 4,2 6,3l-73 73c-3,-1 -5,-1 -7,-1zm-25 -88l4 -5c3,0 6,0 8,0l-12 13 0 -8zm0 38l40 -40c2,0 4,0 6,1l-46 47 0 -8z"/>
 </g>
</svg>
