<?xml version="1.0" encoding="UTF-8"?>
<!DOCTYPE svg PUBLIC "-//W3C//DTD SVG 1.1//EN" "http://www.w3.org/Graphics/SVG/1.1/DTD/svg11.dtd">
<!-- Creator: CorelDRAW X8 -->
<svg xmlns="http://www.w3.org/2000/svg" xml:space="preserve" width="16.3726mm" height="17.6637mm" version="1.1" style="shape-rendering:geometricPrecision; text-rendering:geometricPrecision; image-rendering:optimizeQuality; fill-rule:evenodd; clip-rule:evenodd"
viewBox="0 0 78 84"
 xmlns:xlink="http://www.w3.org/1999/xlink">
 <defs>
  <style type="text/css">
   <![CDATA[
    .fil0 {fill:#488dc6;fill-rule:nonzero}
   ]]>
  </style>
 </defs>
 <g id="Слой_x0020_1">
  <metadata id="CorelCorpID_0Corel-Layer"/>
  <path class="fil0" d="M38 79l-22 0c-6,0 -11,-5 -11,-10l0 -53c0,-6 5,-11 11,-11l22 0c1,0 2,-1 2,-3 0,-1 -1,-2 -2,-2l-22 0c-9,0 -16,7 -16,16l0 53c0,8 7,15 16,15l22 0c1,0 2,-1 2,-2 0,-2 -1,-3 -2,-3zm39 -39l-15 -15c-1,-1 -2,-1 -3,0 -1,1 -1,3 0,3l11 12 -49 0c-1,0 -3,1 -3,2 0,1 2,3 3,3l49 0 -11 11c-1,1 -1,2 0,3 0,1 1,1 1,1 1,0 2,0 2,-1l15 -15c1,-1 1,-3 0,-4z"/>
 </g>
</svg>
