<?xml version="1.0" encoding="UTF-8"?>
<!DOCTYPE svg PUBLIC "-//W3C//DTD SVG 1.1//EN" "http://www.w3.org/Graphics/SVG/1.1/DTD/svg11.dtd">
<!-- Creator: CorelDRAW X8 -->
<svg xmlns="http://www.w3.org/2000/svg" xml:space="preserve" width="104.883mm" height="42.7906mm" version="1.1" style="shape-rendering:geometricPrecision; text-rendering:geometricPrecision; image-rendering:optimizeQuality; fill-rule:evenodd; clip-rule:evenodd"
viewBox="0 0 3645 1487"
 xmlns:xlink="http://www.w3.org/1999/xlink">
 <defs>
  <style type="text/css">
   <![CDATA[
    .fil0 {fill:black;fill-rule:nonzero}
    .fil1 {fill:#498DC6;fill-rule:nonzero}
   ]]>
  </style>
 </defs>
 <g id="Слой_x0020_1">
  <metadata id="CorelCorpID_0Corel-Layer"/>
  <polygon class="fil0" points="1941,530 1941,677 2041,677 2041,708 1941,708 1941,997 1901,997 1901,708 1832,708 1832,677 1901,677 1901,530 "/>
  <path class="fil0" d="M2233 687c27,-15 53,-23 80,-24l-2 39c-24,0 -47,5 -67,16 -21,11 -37,26 -49,45 -12,19 -18,40 -18,62l0 172 -39 0 0 -324 34 0 4 77c11,-26 30,-47 57,-63z"/>
  <path class="fil0" d="M2734 673l0 324 -39 0 0 -69c-12,21 -32,39 -58,54 -26,14 -54,22 -84,22 -31,0 -60,-7 -85,-21 -25,-15 -45,-34 -59,-60 -15,-26 -22,-55 -22,-89 0,-35 7,-66 22,-91 16,-26 37,-46 63,-60 27,-13 58,-20 91,-20 27,0 52,7 77,22 24,15 43,34 55,58l4 -70 35 0zm-80 263l0 0c25,-22 39,-51 41,-87l0 -46c-6,-31 -22,-56 -48,-77 -25,-20 -54,-30 -87,-30 -25,0 -48,5 -68,17 -21,11 -37,27 -49,48 -12,21 -17,45 -17,72 0,25 6,48 18,69 12,21 28,37 49,50 21,12 43,19 68,19 36,0 67,-12 93,-35z"/>
  <path class="fil0" d="M3201 366l0 631 -40 0 0 -67c-15,22 -36,40 -62,53 -26,14 -54,21 -84,21 -31,0 -58,-8 -84,-22 -25,-15 -45,-35 -59,-62 -14,-26 -22,-55 -22,-87 0,-34 8,-64 23,-90 15,-26 35,-46 60,-60 26,-13 54,-20 86,-20 28,0 55,7 82,20 26,14 46,32 61,55l0 -372 39 0zm-82 569l0 0c25,-23 39,-53 42,-88l0 -42c-6,-31 -22,-57 -48,-79 -26,-21 -55,-31 -88,-31 -25,0 -48,6 -68,17 -21,12 -37,28 -49,49 -12,21 -19,44 -19,71 0,25 7,48 19,69 12,21 28,38 49,50 21,12 43,19 68,19 37,0 68,-12 94,-35z"/>
  <path class="fil0" d="M3585 934l20 28c-16,13 -34,23 -54,31 -21,7 -41,11 -61,11 -34,0 -63,-8 -90,-23 -26,-15 -46,-35 -61,-61 -15,-25 -22,-54 -22,-86 0,-31 8,-60 23,-86 16,-27 37,-48 63,-63 27,-15 56,-23 87,-23 38,0 70,11 97,33 26,22 46,52 58,90l-277 107c10,23 26,42 48,56 22,14 47,22 74,22 35,0 67,-12 95,-36zm-164 -221l0 0c-21,12 -37,29 -48,50 -12,20 -18,43 -18,69 0,12 1,22 3,31l239 -94c-10,-22 -25,-40 -44,-54 -18,-13 -40,-20 -65,-20 -24,0 -47,6 -67,18z"/>
  <path class="fil1" d="M744 1366l406 0c-117,76 -257,121 -406,121 -411,0 -744,-333 -744,-743 0,-411 333,-744 744,-744 410,0 743,333 743,744 0,182 -66,349 -175,479l-314 0 387 -610 -418 0c-5,0 -10,0 -16,1 -6,0 -10,-1 -13,-4 -3,-2 -4,-9 -4,-21l0 -14 -136 0 0 108c0,19 10,37 32,51 21,15 44,22 67,22l229 0 -382 610z"/>
 </g>
</svg>
