<?xml version="1.0" standalone="no"?>
<!DOCTYPE svg PUBLIC "-//W3C//DTD SVG 20010904//EN"
 "http://www.w3.org/TR/2001/REC-SVG-20010904/DTD/svg10.dtd">
<svg version="1.0" xmlns="http://www.w3.org/2000/svg"
 width="200.000000pt" height="200.000000pt" viewBox="0 0 200.000000 200.000000"
 preserveAspectRatio="xMidYMid meet">
<metadata>
Created by potrace 1.15, written by Peter Selinger 2001-2017
</metadata>
<g transform="translate(0.000000,200.000000) scale(0.100000,-0.100000)"
fill="#325862" stroke="none">
<path d="M828 1977 c-222 -76 -368 -289 -368 -537 0 -165 52 -294 165 -407
239 -240 618 -205 808 73 221 324 72 771 -292 878 -84 25 -230 21 -313 -7z
m306 -157 c36 -14 78 -41 115 -75 170 -158 181 -419 25 -586 -134 -143 -318
-168 -479 -65 -66 43 -111 96 -149 176 -29 60 -31 73 -31 170 0 97 2 110 31
170 17 36 50 86 72 111 43 48 133 102 198 118 55 14 151 6 218 -19z"/>
<path d="M510 764 c-86 -22 -209 -88 -273 -144 -146 -131 -236 -326 -237 -511
0 -61 4 -79 18 -92 17 -16 100 -17 984 -17 1114 0 998 -13 998 111 -1 244
-155 492 -375 600 -140 68 -148 69 -630 68 -340 0 -441 -3 -485 -15z m977
-165 c184 -67 312 -219 357 -421 l6 -28 -850 0 -850 0 6 28 c42 191 168 347
334 412 88 35 143 38 540 37 l385 -2 72 -26z"/>
</g>
</svg>
