<?xml version="1.0" encoding="UTF-8"?>
<!DOCTYPE svg PUBLIC "-//W3C//DTD SVG 1.1//EN" "http://www.w3.org/Graphics/SVG/1.1/DTD/svg11.dtd">
<!-- Creator: CorelDRAW X8 -->
<svg xmlns="http://www.w3.org/2000/svg" xml:space="preserve" width="43.8002mm" height="43.8002mm" version="1.1" style="shape-rendering:geometricPrecision; text-rendering:geometricPrecision; image-rendering:optimizeQuality; fill-rule:evenodd; clip-rule:evenodd"
viewBox="0 0 1776 1776"
 xmlns:xlink="http://www.w3.org/1999/xlink">
 <defs>
  <style type="text/css">
   <![CDATA[
    .fil0 {fill:#ffffff}
   ]]>
  </style>
 </defs>
 <g id="Слой_x0020_1">
  <metadata id="CorelCorpID_0Corel-Layer"/>
  <path class="fil0" d="M764 958c-67,-41 -106,-112 -106,-190 0,-123 101,-223 223,-223 123,0 224,100 224,223 0,78 -40,149 -106,190l0 0c112,39 194,137 217,253l0 4 -55 0 -1 -3c-29,-130 -146,-221 -279,-221 -133,0 -249,91 -278,221l-1 3 -55 0 0 -4c24,-116 107,-212 217,-253l0 0zm-50 -190c0,92 75,168 167,168 93,0 168,-76 168,-168 0,-92 -75,-167 -168,-167 -92,0 -167,75 -167,167z"/>
 </g>
</svg>
